0.000000 33.410243 -111.893984 416874.987793 3697125.133190 1.500000 1.000000 0.000000 -1.427735
0.100000 33.410242 -111.893984 416875.002763 3697125.029263 1.500000 1.050000 0.000000 -1.427735
0.200000 33.410241 -111.893984 416875.018375 3697124.920881 1.500000 1.095000 0.000000 -1.427735
0.300000 33.410240 -111.893984 416875.034565 3697124.808491 1.500000 1.135500 0.000000 -1.427735
0.400000 33.410239 -111.893984 416875.051273 3697124.692494 1.500000 1.171950 0.000000 -1.427735
0.500000 33.410238 -111.893983 416875.068450 3697124.573249 1.500000 1.204755 0.000000 -1.427735
0.600000 33.410237 -111.893983 416875.086048 3697124.451082 1.500000 1.234279 0.000000 -1.427735
0.700000 33.410236 -111.893983 416875.104024 3697124.326285 1.500000 1.260852 0.000000 -1.427735
0.800000 33.410235 -111.893983 416875.122342 3697124.199121 1.500000 1.284766 0.000000 -1.427735
0.900000 33.410234 -111.893983 416875.140966 3697124.069826 1.500000 1.306290 0.000000 -1.427735
1.000000 33.410232 -111.893982 416875.159866 3697123.938614 1.500000 1.325661 0.000000 -1.427735
1.100000 33.410231 -111.893982 416875.179015 3697123.805677 1.500000 1.343095 0.000000 -1.427735
1.200000 33.410230 -111.893982 416875.198388 3697123.671186 1.500000 1.358785 0.000000 -1.427735
1.300000 33.410229 -111.893982 416875.217962 3697123.535298 1.500000 1.372907 0.000000 -1.427735
1.400000 33.410227 -111.893982 416875.237717 3697123.398152 1.500000 1.385616 0.000000 -1.427735
1.500000 33.410226 -111.893981 416875.257636 3697123.259874 1.500000 1.397054 0.000000 -1.427735
1.600000 33.410225 -111.893981 416875.277701 3697123.120577 1.500000 1.407349 0.000000 -1.427735
1.700000 33.410224 -111.893981 416875.297898 3697122.980363 1.500000 1.416614 0.000000 -1.427735
1.800000 33.410222 -111.893981 416875.318214 3697122.839323 1.500000 1.424953 0.000000 -1.427735
1.900000 33.410221 -111.893980 416875.338637 3697122.697541 1.500000 1.432457 0.000000 -1.427735
2.000000 33.410220 -111.893980 416875.359157 3697122.555090 1.500000 1.439212 0.000000 -1.427735
2.100000 33.410219 -111.893980 416875.379763 3697122.412037 1.500000 1.445291 0.000000 -1.427735
2.200000 33.410217 -111.893980 416875.400447 3697122.268443 1.500000 1.450761 0.000000 -1.427735
2.300000 33.410216 -111.893979 416875.421201 3697122.124362 1.500000 1.455685 0.000000 -1.427735
2.400000 33.410215 -111.893979 416875.442018 3697121.979842 1.500000 1.460117 0.000000 -1.427735
2.500000 33.410213 -111.893979 416875.462893 3697121.834927 1.500000 1.464105 0.000000 -1.427735
2.600000 33.410212 -111.893979 416875.483818 3697121.689657 1.500000 1.467695 0.000000 -1.427735
2.700000 33.410211 -111.893979 416875.504790 3697121.544067 1.500000 1.470925 0.000000 -1.427735
2.800000 33.410209 -111.893978 416875.525803 3697121.398189 1.500000 1.473833 0.000000 -1.427735
2.900000 33.410208 -111.893978 416875.546853 3697121.252053 1.500000 1.476449 0.000000 -1.427735
3.000000 33.410207 -111.893978 416875.567937 3697121.105683 1.500000 1.478804 0.000000 -1.427735
3.100000 33.410206 -111.893978 416875.589051 3697120.959103 1.500000 1.480924 0.000000 -1.427735
3.200000 33.410204 -111.893977 416875.610192 3697120.812335 1.500000 1.482832 0.000000 -1.427735
3.300000 33.410203 -111.893977 416875.631358 3697120.665397 1.500000 1.484548 0.000000 -1.427735
3.400000 33.410202 -111.893977 416875.652546 3697120.518306 1.500000 1.486094 0.000000 -1.427735
3.500000 33.410200 -111.893977 416875.673754 3697120.371077 1.500000 1.487484 0.000000 -1.427735
3.600000 33.410199 -111.893976 416875.694979 3697120.223724 1.500000 1.488736 0.000000 -1.427735
3.700000 33.410198 -111.893976 416875.716221 3697120.076260 1.500000 1.489862 0.000000 -1.427735
3.800000 33.410196 -111.893976 416875.737477 3697119.928695 1.500000 1.490876 0.000000 -1.427735
3.900000 33.410195 -111.893976 416875.758746 3697119.781041 1.500000 1.491788 0.000000 -1.427735
4.000000 33.410194 -111.893975 416875.780026 3697119.633304 1.500000 1.492610 0.000000 -1.427735
4.100000 33.410192 -111.893975 416875.801318 3697119.485495 1.500000 1.493349 0.000000 -1.427735
4.200000 33.410191 -111.893975 416875.822618 3697119.337620 1.500000 1.494014 0.000000 -1.427735
4.300000 33.410190 -111.893975 416875.843927 3697119.189686 1.500000 1.494612 0.000000 -1.427735
4.400000 33.410188 -111.893974 416875.865244 3697119.041698 1.500000 1.495151 0.000000 -1.427735
4.500000 33.410187 -111.893974 416875.886568 3697118.893662 1.500000 1.495636 0.000000 -1.427735
4.600000 33.410186 -111.893974 416875.907898 3697118.745583 1.500000 1.496072 0.000000 -1.427735
4.700000 33.410184 -111.893974 416875.929234 3697118.597466 1.500000 1.496465 0.000000 -1.427735
4.800000 33.410183 -111.893973 416875.950575 3697118.449313 1.500000 1.496819 0.000000 -1.427735
4.900000 33.410182 -111.893973 416875.971920 3697118.301129 1.500000 1.497137 0.000000 -1.427735
5.000000 33.410180 -111.893973 416875.993269 3697118.152916 1.500000 1.497423 0.000000 -1.427735
5.100000 33.410179 -111.893973 416876.014622 3697118.004678 1.500000 1.497681 0.000000 -1.427735
5.200000 33.410178 -111.893972 416876.035979 3697117.856417 1.500000 1.497913 0.000000 -1.427735
5.300000 33.410176 -111.893972 416876.057338 3697117.708135 1.500000 1.498121 0.000000 -1.427735
5.400000 33.410175 -111.893972 416876.078700 3697117.559835 1.500000 1.498309 0.000000 -1.427735
5.500000 33.410174 -111.893972 416876.100064 3697117.411518 1.500000 1.498478 0.000000 -1.427735
5.600000 33.410172 -111.893971 416876.121431 3697117.263186 1.500000 1.498631 0.000000 -1.427735
5.700000 33.410171 -111.893971 416876.142799 3697117.114840 1.500000 1.498767 0.000000 -1.427735
5.800000 33.410170 -111.893971 416876.164170 3697116.966482 1.500000 1.498891 0.000000 -1.427735
5.900000 33.410168 -111.893971 416876.185541 3697116.818114 1.500000 1.499002 0.000000 -1.427735
6.000000 33.410167 -111.893971 416876.206915 3697116.669735 1.500000 1.499101 0.000000 -1.427735
6.100000 33.410166 -111.893970 416876.228289 3697116.521347 1.500000 1.499191 0.000000 -1.427735
6.200000 33.410164 -111.893970 416876.249665 3697116.372952 1.500000 1.499272 0.000000 -1.427735
6.300000 33.410163 -111.893970 416876.271042 3697116.224549 1.500000 1.499345 0.000000 -1.427735
6.400000 33.410162 -111.893970 416876.292419 3697116.076140 1.500000 1.499410 0.000000 -1.427735
6.500000 33.410160 -111.893969 416876.313798 3697115.927725 1.500000 1.499469 0.000000 -1.427735
6.600000 33.410159 -111.893969 416876.335177 3697115.779304 1.500000 1.499522 0.000000 -1.427735
6.700000 33.410158 -111.893969 416876.356557 3697115.630879 1.500000 1.499570 0.000000 -1.427735
6.800000 33.410156 -111.893969 416876.377938 3697115.482450 1.500000 1.499613 0.000000 -1.427735
6.900000 33.410155 -111.893968 416876.399319 3697115.334017 1.500000 1.499652 0.000000 -1.427735
7.000000 33.410153 -111.893968 416876.420700 3697115.185580 1.500000 1.499687 0.000000 -1.427735
7.100000 33.410152 -111.893968 416876.442082 3697115.037140 1.500000 1.499718 0.000000 -1.427735
7.200000 33.410151 -111.893968 416876.463465 3697114.888698 1.500000 1.499746 0.000000 -1.427735
7.300000 33.410149 -111.893967 416876.484848 3697114.740253 1.500000 1.499772 0.000000 -1.427735
7.400000 33.410148 -111.893967 416876.506231 3697114.591805 1.500000 1.499794 0.000000 -1.427735
7.500000 33.410147 -111.893967 416876.527614 3697114.443356 1.500000 1.499815 0.000000 -1.427735
7.600000 33.410145 -111.893967 416876.548998 3697114.294905 1.500000 1.499834 0.000000 -1.427735
7.700000 33.410144 -111.893966 416876.570382 3697114.146452 1.500000 1.499850 0.000000 -1.427735
7.800000 33.410143 -111.893966 416876.591766 3697113.997998 1.500000 1.499865 0.000000 -1.427735
7.900000 33.410141 -111.893966 416876.613150 3697113.849542 1.500000 1.499879 0.000000 -1.427735
8.000000 33.410140 -111.893966 416876.634535 3697113.701086 1.500000 1.499891 0.000000 -1.427735
8.100000 33.410139 -111.893965 416876.655920 3697113.552628 1.500000 1.499902 0.000000 -1.427735
8.200000 33.410137 -111.893965 416876.677304 3697113.404169 1.500000 1.499912 0.000000 -1.427735
8.300000 33.410136 -111.893965 416876.698689 3697113.255709 1.500000 1.499920 0.000000 -1.427735
8.400000 33.410135 -111.893965 416876.720074 3697113.107248 1.500000 1.499928 0.000000 -1.427735
8.500000 33.410133 -111.893964 416876.741460 3697112.958787 1.500000 1.499935 0.000000 -1.427735
8.600000 33.410132 -111.893964 416876.762845 3697112.810325 1.500000 1.499942 0.000000 -1.427735
8.700000 33.410131 -111.893964 416876.784230 3697112.661863 1.500000 1.499948 0.000000 -1.427735
8.800000 33.410129 -111.893964 416876.805616 3697112.513400 1.500000 1.499953 0.000000 -1.427735
8.900000 33.410128 -111.893963 416876.827001 3697112.364936 1.500000 1.499958 0.000000 -1.427735
9.000000 33.410127 -111.893963 416876.848387 3697112.216473 1.500000 1.499962 0.000000 -1.427735
9.100000 33.410125 -111.893963 416876.869772 3697112.068008 1.500000 1.499966 0.000000 -1.427735
9.200000 33.410124 -111.893963 416876.891158 3697111.919544 1.500000 1.499969 0.000000 -1.427735
9.300000 33.410123 -111.893962 416876.912543 3697111.771079 1.500000 1.499972 0.000000 -1.427735
9.400000 33.410121 -111.893962 416876.933929 3697111.622614 1.500000 1.499975 0.000000 -1.427735
9.500000 33.410120 -111.893962 416876.955315 3697111.474148 1.500000 1.499978 0.000000 -1.427735
9.600000 33.410119 -111.893962 416876.976701 3697111.325683 1.500000 1.499980 0.000000 -1.427735
9.700000 33.410117 -111.893962 416876.998087 3697111.177217 1.500000 1.499982 0.000000 -1.427735
9.800000 33.410116 -111.893961 416877.019472 3697111.028751 1.500000 1.499984 0.000000 -1.427735
9.900000 33.410115 -111.893961 416877.040858 3697110.880285 1.500000 1.499985 0.000000 -1.427735
10.000000 33.410113 -111.893961 416877.062244 3697110.731818 1.500000 1.499987 0.000000 -1.427735
10.100000 33.410112 -111.893961 416877.083630 3697110.583352 1.500000 1.499988 0.000000 -1.427735
10.200000 33.410111 -111.893960 416877.105016 3697110.434885 1.500000 1.499989 0.000000 -1.427735
10.300000 33.410109 -111.893960 416877.126402 3697110.286419 1.500000 1.499990 0.000000 -1.427735
10.400000 33.410108 -111.893960 416877.147788 3697110.137952 1.500000 1.499991 0.000000 -1.427735
10.500000 33.410107 -111.893960 416877.169174 3697109.989485 1.500000 1.499992 0.000000 -1.427735
10.600000 33.410105 -111.893959 416877.190560 3697109.841018 1.500000 1.499993 0.000000 -1.427735
10.700000 33.410104 -111.893959 416877.211946 3697109.692551 1.500000 1.499994 0.000000 -1.427735
10.800000 33.410103 -111.893959 416877.233332 3697109.544084 1.500000 1.499994 0.000000 -1.427735
10.900000 33.410101 -111.893959 416877.254718 3697109.395617 1.500000 1.499995 0.000000 -1.427735
11.000000 33.410100 -111.893958 416877.276104 3697109.247150 1.500000 1.499995 0.000000 -1.427735
11.100000 33.410099 -111.893958 416877.297490 3697109.098683 1.500000 1.499996 0.000000 -1.427735
11.200000 33.410097 -111.893958 416877.318876 3697108.950215 1.500000 1.499996 0.000000 -1.427735
11.300000 33.410096 -111.893958 416877.340262 3697108.801748 1.500000 1.499997 0.000000 -1.427735
11.400000 33.410095 -111.893957 416877.361648 3697108.653281 1.500000 1.499997 0.000000 -1.427735
11.500000 33.410093 -111.893957 416877.383034 3697108.504813 1.500000 1.499997 0.000000 -1.427735
11.600000 33.410092 -111.893957 416877.404420 3697108.356346 1.500000 1.499998 0.000000 -1.427735
11.700000 33.410091 -111.893957 416877.425806 3697108.207879 1.500000 1.499998 0.000000 -1.427735
11.800000 33.410089 -111.893956 416877.447192 3697108.059411 1.500000 1.499998 0.000000 -1.427735
11.900000 33.410088 -111.893956 416877.468578 3697107.910944 1.500000 1.499998 0.000000 -1.427735
12.000000 33.410087 -111.893956 416877.489964 3697107.762476 1.500000 1.499998 0.000000 -1.427735
12.100000 33.410085 -111.893956 416877.511350 3697107.614009 1.500000 1.499999 0.000000 -1.427735
12.200000 33.410084 -111.893955 416877.532736 3697107.465541 1.500000 1.499999 0.000000 -1.427735
12.300000 33.410083 -111.893955 416877.554122 3697107.317074 1.500000 1.499999 0.000000 -1.427735
12.400000 33.410081 -111.893955 416877.575508 3697107.168606 1.500000 1.499999 0.000000 -1.427735
12.500000 33.410080 -111.893955 416877.596894 3697107.020139 1.500000 1.499999 0.000000 -1.427735
12.600000 33.410079 -111.893954 416877.618280 3697106.871671 1.500000 1.499999 0.000000 -1.427735
12.700000 33.410077 -111.893954 416877.639667 3697106.723204 1.500000 1.499999 0.000000 -1.427735
12.800000 33.410076 -111.893954 416877.661053 3697106.574736 1.500000 1.499999 0.000000 -1.427735
12.900000 33.410075 -111.893954 416877.682439 3697106.426269 1.500000 1.499999 0.000000 -1.427735
13.000000 33.410073 -111.893953 416877.703825 3697106.277801 1.500000 1.499999 0.000000 -1.427735
13.100000 33.410072 -111.893953 416877.725211 3697106.129333 1.500000 1.499999 0.000000 -1.427735
13.200000 33.410071 -111.893953 416877.746597 3697105.980866 1.500000 1.500000 0.000000 -1.427735
13.300000 33.410069 -111.893953 416877.767983 3697105.832398 1.500000 1.500000 0.000000 -1.427735
13.400000 33.410068 -111.893952 416877.789369 3697105.683931 1.500000 1.500000 0.000000 -1.427735
13.500000 33.410067 -111.893952 416877.810755 3697105.535463 1.500000 1.500000 0.000000 -1.427735
13.600000 33.410065 -111.893952 416877.832141 3697105.386996 1.500000 1.500000 0.000000 -1.427735
13.700000 33.410064 -111.893952 416877.853527 3697105.238528 1.500000 1.500000 0.000000 -1.427735
13.800000 33.410063 -111.893952 416877.874913 3697105.090060 1.500000 1.500000 0.000000 -1.427735
13.900000 33.410061 -111.893951 416877.896299 3697104.941593 1.500000 1.500000 0.000000 -1.427735
14.000000 33.410060 -111.893951 416877.917685 3697104.793125 1.500000 1.500000 0.000000 -1.427735
14.100000 33.410059 -111.893951 416877.939072 3697104.644658 1.500000 1.500000 0.000000 -1.427735
14.200000 33.410057 -111.893951 416877.960458 3697104.496190 1.500000 1.500000 0.000000 -1.427735
14.300000 33.410056 -111.893950 416877.981844 3697104.347722 1.500000 1.500000 0.000000 -1.427735
14.400000 33.410055 -111.893950 416878.003230 3697104.199255 1.500000 1.500000 0.000000 -1.427735
14.500000 33.410053 -111.893950 416878.024616 3697104.050787 1.500000 1.500000 0.000000 -1.427735
14.600000 33.410052 -111.893950 416878.046002 3697103.902319 1.500000 1.500000 0.000000 -1.427735
14.700000 33.410051 -111.893949 416878.067388 3697103.753852 1.500000 1.500000 0.000000 -1.427735
14.800000 33.410049 -111.893949 416878.088774 3697103.605384 1.500000 1.500000 0.000000 -1.427735
14.900000 33.410048 -111.893949 416878.110160 3697103.456917 1.500000 1.500000 0.000000 -1.427735
15.000000 33.410047 -111.893949 416878.131546 3697103.308449 1.500000 1.500000 0.000000 -1.427735
15.100000 33.410045 -111.893948 416878.152932 3697103.159981 1.500000 1.500000 0.000000 -1.427735
15.200000 33.410044 -111.893948 416878.174318 3697103.011514 1.500000 1.500000 0.000000 -1.427735
15.300000 33.410043 -111.893948 416878.195704 3697102.863046 1.500000 1.500000 0.000000 -1.427735
15.400000 33.410041 -111.893948 416878.217090 3697102.714578 1.500000 1.500000 0.000000 -1.427735
15.500000 33.410040 -111.893947 416878.238477 3697102.566111 1.500000 1.500000 0.000000 -1.427735
15.600000 33.410038 -111.893947 416878.259863 3697102.417643 1.500000 1.500000 0.000000 -1.427735
15.700000 33.410037 -111.893947 416878.281249 3697102.269176 1.500000 1.500000 0.000000 -1.427735
15.800000 33.410036 -111.893947 416878.302635 3697102.120708 1.500000 1.500000 0.000000 -1.427735
15.900000 33.410034 -111.893946 416878.324021 3697101.972240 1.500000 1.500000 0.000000 -1.427735
16.000000 33.410033 -111.893946 416878.345407 3697101.823773 1.500000 1.500000 0.000000 -1.427735
16.100000 33.410032 -111.893946 416878.366793 3697101.675305 1.500000 1.500000 0.000000 -1.427735
16.200000 33.410030 -111.893946 416878.388179 3697101.526838 1.500000 1.500000 0.000000 -1.427735
16.300000 33.410029 -111.893945 416878.409565 3697101.378370 1.500000 1.500000 0.000000 -1.427735
16.400000 33.410028 -111.893945 416878.430951 3697101.229902 1.500000 1.500000 0.000000 -1.427735
16.500000 33.410026 -111.893945 416878.452337 3697101.081435 1.500000 1.500000 0.000000 -1.427735
16.600000 33.410025 -111.893945 416878.473723 3697100.932967 1.500000 1.500000 0.000000 -1.427735
16.700000 33.410024 -111.893944 416878.495109 3697100.784499 1.500000 1.500000 0.000000 -1.427735
16.800000 33.410022 -111.893944 416878.516495 3697100.636032 1.500000 1.500000 0.000000 -1.427735
16.900000 33.410021 -111.893944 416878.537882 3697100.487564 1.500000 1.500000 0.000000 -1.427735
17.000000 33.410020 -111.893944 416878.559268 3697100.339097 1.500000 1.500000 0.000000 -1.427735
17.100000 33.410018 -111.893943 416878.580654 3697100.190629 1.500000 1.500000 0.000000 -1.427735
17.200000 33.410017 -111.893943 416878.602040 3697100.042161 1.500000 1.500000 0.000000 -1.427735
17.300000 33.410016 -111.893943 416878.623426 3697099.893694 1.500000 1.500000 0.000000 -1.427735
17.400000 33.410014 -111.893943 416878.644812 3697099.745226 1.500000 1.500000 0.000000 -1.427735
17.500000 33.410013 -111.893942 416878.666198 3697099.596758 1.500000 1.500000 0.000000 -1.427735
17.600000 33.410012 -111.893942 416878.687584 3697099.448291 1.500000 1.500000 0.000000 -1.427735
17.700000 33.410010 -111.893942 416878.708970 3697099.299823 1.500000 1.500000 0.000000 -1.427735
17.800000 33.410009 -111.893942 416878.730356 3697099.151356 1.500000 1.500000 0.000000 -1.427735
17.900000 33.410008 -111.893942 416878.751742 3697099.002888 1.500000 1.500000 0.000000 -1.427735
18.000000 33.410006 -111.893941 416878.773128 3697098.854420 1.500000 1.500000 0.000000 -1.427735
18.100000 33.410005 -111.893941 416878.794514 3697098.705953 1.500000 1.500000 0.000000 -1.427735
18.200000 33.410004 -111.893941 416878.815901 3697098.557485 1.500000 1.500000 0.000000 -1.427735
18.300000 33.410002 -111.893941 416878.837287 3697098.409017 1.500000 1.500000 0.000000 -1.427735
18.400000 33.410001 -111.893940 416878.858673 3697098.260550 1.500000 1.500000 0.000000 -1.427735
18.500000 33.410000 -111.893940 416878.880059 3697098.112082 1.500000 1.500000 0.000000 -1.427735
18.600000 33.409998 -111.893940 416878.901445 3697097.963615 1.500000 1.500000 0.000000 -1.427735
18.700000 33.409997 -111.893940 416878.922831 3697097.815147 1.500000 1.500000 0.000000 -1.427735
18.800000 33.409996 -111.893939 416878.944217 3697097.666679 1.500000 1.500000 0.000000 -1.427735
18.900000 33.409994 -111.893939 416878.965603 3697097.518212 1.500000 1.500000 0.000000 -1.427735
19.000000 33.409993 -111.893939 416878.986989 3697097.369744 1.500000 1.500000 0.000000 -1.427735
19.100000 33.409992 -111.893939 416879.008375 3697097.221276 1.500000 1.500000 0.000000 -1.427735
19.200000 33.409990 -111.893938 416879.029761 3697097.072809 1.500000 1.500000 0.000000 -1.427735
19.300000 33.409989 -111.893938 416879.051147 3697096.924341 1.500000 1.500000 0.000000 -1.427735
19.400000 33.409988 -111.893938 416879.072533 3697096.775874 1.500000 1.500000 0.000000 -1.427735
19.500000 33.409986 -111.893938 416879.093920 3697096.627406 1.500000 1.500000 0.000000 -1.427735
19.600000 33.409985 -111.893937 416879.115306 3697096.478938 1.500000 1.500000 0.000000 -1.427735
19.700000 33.409984 -111.893937 416879.136692 3697096.330471 1.500000 1.500000 0.000000 -1.427735
19.800000 33.409982 -111.893937 416879.158078 3697096.182003 1.500000 1.500000 0.000000 -1.427735
19.900000 33.409981 -111.893937 416879.179464 3697096.033535 1.500000 1.500000 0.000000 -1.427735
20.000000 33.409980 -111.893936 416879.200850 3697095.885068 1.500000 1.500000 0.000000 -1.427735
20.100000 33.409978 -111.893936 416879.222236 3697095.736600 1.500000 1.500000 0.000000 -1.427735
20.200000 33.409977 -111.893936 416879.243622 3697095.588133 1.500000 1.500000 0.000000 -1.427735
20.300000 33.409976 -111.893936 416879.265008 3697095.439665 1.500000 1.500000 0.000000 -1.427735
20.400000 33.409974 -111.893935 416879.286394 3697095.291197 1.500000 1.500000 0.000000 -1.427735
20.500000 33.409973 -111.893935 416879.307780 3697095.142730 1.500000 1.500000 0.000000 -1.427735
20.600000 33.409972 -111.893935 416879.329166 3697094.994262 1.500000 1.500000 0.000000 -1.427735
20.700000 33.409970 -111.893935 416879.350552 3697094.845794 1.500000 1.500000 0.000000 -1.427735
20.800000 33.409969 -111.893934 416879.371938 3697094.697327 1.500000 1.500000 0.000000 -1.427735
