1440980135.390696 33.409969 -111.893976 416875.518272 3697094.769427 360.620000 0.080000 0.000000 -1.449583 0.000000 0.000000 0.000000 0.000000 0.000000 0.000000 7
1440980135.490614 33.409969 -111.893976 416875.518272 3697094.769427 360.620000 0.080000 0.000000 -1.449618 0.000000 0.000000 0.000000 0.000000 0.000000 0.000000 7
1440980135.590566 33.409969 -111.893976 416875.518272 3697094.769427 360.620000 0.080000 0.000000 -1.449636 0.000000 0.000000 0.000000 0.000000 0.000000 0.000000 7
1440980135.690612 33.409969 -111.893975 416875.555371 3697094.758020 360.600000 0.100000 0.000000 -1.449688 0.000000 0.000000 0.000000 0.000000 0.000000 0.000000 7
1440980135.790609 33.409969 -111.893975 416875.555371 3697094.758020 360.600000 0.100000 0.000000 -1.449670 0.000000 0.000000 0.000000 0.000000 0.000000 0.000000 7
1440980135.890498 33.409969 -111.893975 416875.583267 3697094.757781 360.570000 0.060000 0.000000 -1.450473 0.000000 0.000000 0.000000 0.000000 0.000000 0.000000 7
1440980135.990545 33.409969 -111.893975 416875.583362 3697094.768868 360.570000 0.030000 0.000000 -1.449182 0.000000 0.000000 0.000000 0.000000 0.000000 0.000000 7
1440980136.090651 33.409969 -111.893975 416875.583362 3697094.768868 360.570000 0.030000 0.000000 -1.450264 0.000000 0.000000 0.000000 0.000000 0.000000 0.000000 7
1440980136.190628 33.409969 -111.893975 416875.592756 3697094.779875 360.580000 0.020000 0.000000 -1.450386 0.000000 0.000000 0.000000 0.000000 0.000000 0.000000 7
1440980136.290604 33.409969 -111.893975 416875.592756 3697094.779875 360.580000 0.020000 0.000000 -1.450124 0.000000 0.000000 0.000000 0.000000 0.000000 0.000000 7
1440980136.390615 33.409969 -111.893975 416875.620652 3697094.779636 360.580000 0.070000 0.000000 -1.450194 0.000000 0.000000 0.000000 0.000000 0.000000 0.000000 7
1440980136.490560 33.409969 -111.893975 416875.620652 3697094.779636 360.580000 0.070000 0.000000 -1.450491 0.000000 0.000000 0.000000 0.000000 0.000000 0.000000 7
1440980136.590537 33.409969 -111.893975 416875.639249 3697094.779476 360.580000 0.080000 0.000000 -1.450980 0.000000 0.000000 0.000000 0.000000 0.000000 0.000000 7
1440980136.690611 33.409969 -111.893975 416875.639249 3697094.779476 360.580000 0.080000 0.000000 -1.448833 0.000000 0.000000 0.000000 0.000000 0.000000 0.000000 7
1440980136.790492 33.409969 -111.893974 416875.657846 3697094.779316 360.580000 0.090000 0.000000 -1.454226 0.000000 0.000000 0.000000 0.000000 0.000000 0.000000 7
1440980136.890497 33.409969 -111.893974 416875.657846 3697094.779316 360.580000 0.090000 0.000000 -1.452428 0.000000 0.000000 0.000000 0.000000 0.000000 0.000000 7
1440980136.990605 33.409970 -111.893974 416875.676634 3697094.801331 360.570000 0.060000 0.000000 -1.448222 0.000000 0.000000 0.000000 0.000000 0.000000 0.000000 7
1440980137.090656 33.409970 -111.893974 416875.676634 3697094.801331 360.570000 0.060000 0.000000 -1.452795 0.000000 0.000000 0.000000 0.000000 0.000000 0.000000 7
1440980137.190524 33.409970 -111.893974 416875.676729 3697094.812418 360.560000 0.020000 0.000000 -1.452620 0.000000 0.000000 0.000000 0.000000 0.000000 0.000000 7
1440980137.290600 33.409970 -111.893974 416875.676729 3697094.812418 360.560000 0.020000 0.000000 -1.451573 0.000000 0.000000 0.000000 0.000000 0.000000 0.000000 7
1440980137.390627 33.409970 -111.893974 416875.713924 3697094.812098 360.560000 0.120000 0.000000 -1.450787 0.000000 0.000000 0.000000 0.000000 0.000000 0.000000 7
1440980137.490586 33.409970 -111.893974 416875.713924 3697094.812098 360.560000 0.120000 0.000000 -1.452079 0.000000 0.000000 0.000000 0.000000 0.000000 0.000000 7
1440980137.590609 33.409970 -111.893973 416875.779109 3697094.822626 360.580000 0.170000 0.000000 -1.449845 0.000000 0.000000 0.000000 0.000000 0.000000 0.000000 7
1440980137.690615 33.409970 -111.893973 416875.779109 3697094.822626 360.580000 0.170000 0.000000 -1.450787 0.000000 0.000000 0.000000 0.000000 0.000000 0.000000 7
1440980137.790623 33.409970 -111.893973 416875.807100 3697094.833474 360.600000 0.100000 0.000000 -1.454086 0.000000 0.000000 0.000000 0.000000 0.000000 0.000000 7
1440980137.890611 33.409970 -111.893973 416875.807100 3697094.833474 360.600000 0.100000 0.000000 -1.455413 0.000000 0.000000 0.000000 0.000000 0.000000 0.000000 7
1440980137.990505 33.409970 -111.893972 416875.844104 3697094.810980 360.610000 0.110000 0.000000 -1.453074 0.000000 0.000000 0.000000 0.000000 0.000000 0.000000 7
1440980138.090544 33.409970 -111.893972 416875.844104 3697094.810980 360.610000 0.110000 0.000000 -1.451381 0.000000 0.000000 0.000000 0.000000 0.000000 0.000000 7
1440980138.190598 33.409970 -111.893972 416875.909289 3697094.821508 360.610000 0.140000 0.000000 -1.444277 0.000000 0.000000 0.000000 0.000000 0.000000 0.000000 7
1440980138.290615 33.409970 -111.893972 416875.909289 3697094.821508 360.610000 0.140000 0.000000 -1.438326 0.000000 0.000000 0.000000 0.000000 0.000000 0.000000 7
1440980138.390615 33.409970 -111.893971 416875.983678 3697094.820869 360.600000 0.180000 0.000000 -1.427592 0.000000 0.000000 0.000000 0.000000 0.000000 0.000000 7
1440980138.490602 33.409970 -111.893971 416875.983678 3697094.820869 360.600000 0.180000 0.000000 -1.422792 0.000000 0.000000 0.000000 0.000000 0.000000 0.000000 7
1440980138.590566 33.409970 -111.893970 416876.020968 3697094.831636 360.580000 0.060000 0.000000 -1.418028 0.000000 0.000000 0.000000 0.000000 0.000000 0.000000 7
1440980138.690612 33.409970 -111.893970 416876.020968 3697094.831636 360.580000 0.060000 0.000000 -1.419023 0.000000 0.000000 0.000000 0.000000 0.000000 0.000000 7
1440980138.790607 33.409970 -111.893970 416876.058162 3697094.831317 360.580000 0.050000 0.000000 -1.423194 0.000000 0.000000 0.000000 0.000000 0.000000 0.000000 7
1440980138.890474 33.409970 -111.893970 416876.058162 3697094.831317 360.580000 0.050000 0.000000 -1.428465 0.000000 0.000000 0.000000 0.000000 0.000000 0.000000 7
1440980138.990599 33.409970 -111.893970 416876.067365 3697094.820150 360.590000 0.040000 0.000000 -1.429233 0.000000 0.000000 0.000000 0.000000 0.000000 0.000000 7
1440980139.090681 33.409970 -111.893970 416876.067365 3697094.820150 360.590000 0.040000 0.000000 -1.431449 0.000000 0.000000 0.000000 0.000000 0.000000 0.000000 7
1440980139.190617 33.409970 -111.893970 416876.067365 3697094.820150 360.590000 0.040000 0.000000 -1.432968 0.000000 0.000000 0.000000 0.000000 0.000000 0.000000 7
1440980139.290604 33.409970 -111.893970 416876.029980 3697094.798295 360.570000 0.150000 0.000000 -1.434608 0.000000 0.000000 0.000000 0.000000 0.000000 0.000000 7
1440980139.390491 33.409970 -111.893971 416876.011574 3697094.820629 360.560000 0.200000 0.000000 -1.434312 0.000000 0.000000 0.000000 0.000000 0.000000 0.000000 7
1440980139.490631 33.409970 -111.893971 416876.011574 3697094.820629 360.560000 0.200000 2.426798 -1.612981 0.000000 0.000000 0.000000 0.000000 0.000000 0.000000 7
1440980139.590619 33.409970 -111.893971 416876.011574 3697094.820629 360.560000 0.200000 0.000000 -1.609508 0.000000 0.000000 0.000000 0.000000 0.000000 0.000000 7
1440980139.690614 33.409970 -111.893971 416875.946960 3697094.876625 360.550000 0.370000 0.290016 -1.605877 0.000000 0.000000 0.000000 0.000000 0.000000 0.000000 7
1440980139.790600 33.409971 -111.893972 416875.891740 3697094.943628 360.550000 0.490000 0.310014 -1.604481 0.000000 0.000000 0.000000 0.000000 0.000000 0.000000 7
1440980139.890634 33.409971 -111.893972 416875.891740 3697094.943628 360.550000 0.490000 1.049706 -1.601374 0.000000 0.000000 0.000000 0.000000 0.000000 0.000000 7
1440980139.990601 33.409971 -111.893972 416875.845818 3697095.010551 360.560000 0.490000 0.650265 -1.601479 0.000000 0.000000 0.000000 0.000000 0.000000 0.000000 7
1440980140.091153 33.409971 -111.893972 416875.845818 3697095.010551 360.560000 0.490000 1.322883 -1.610433 0.000000 0.000000 0.000000 0.000000 0.000000 0.000000 7
1440980140.190619 33.409972 -111.893973 416875.790789 3697095.099728 360.570000 0.530000 0.452341 -1.615389 0.000000 0.000000 0.000000 0.000000 0.000000 0.000000 7
1440980140.290638 33.409972 -111.893973 416875.790789 3697095.099728 360.570000 0.530000 0.399991 -1.619666 0.000000 0.000000 0.000000 0.000000 0.000000 0.000000 7
1440980140.390471 33.409973 -111.893974 416875.726080 3697095.144637 360.590000 0.480000 0.030041 -1.621952 0.000000 0.000000 0.000000 0.000000 0.000000 0.000000 7
1440980140.490616 33.409973 -111.893974 416875.726080 3697095.144637 360.590000 0.480000 -0.049933 -1.623680 0.000000 0.000000 0.000000 0.000000 0.000000 0.000000 7
1440980140.590571 33.409973 -111.893974 416875.670860 3697095.211640 360.590000 0.480000 -0.120045 -1.624762 0.000000 0.000000 0.000000 0.000000 0.000000 0.000000 7
1440980140.690521 33.409973 -111.893974 416875.670860 3697095.211640 360.590000 0.480000 -0.040026 -1.622755 0.000000 0.000000 0.000000 0.000000 0.000000 0.000000 7
1440980140.790679 33.409973 -111.893975 416875.633856 3697095.234134 360.590000 0.370000 -0.139783 -1.620049 0.000000 0.000000 0.000000 0.000000 0.000000 0.000000 7
1440980140.890673 33.409973 -111.893975 416875.633856 3697095.234134 360.590000 0.370000 0.010001 -1.617623 0.000000 0.000000 0.000000 0.000000 0.000000 0.000000 7
1440980140.990543 33.409974 -111.893975 416875.615449 3697095.256468 360.580000 0.250000 -0.020022 -1.615721 0.000000 0.000000 0.000000 0.000000 0.000000 0.000000 7
1440980141.090637 33.409974 -111.893975 416875.615449 3697095.256468 360.580000 0.250000 0.029972 -1.611777 0.000000 0.000000 0.000000 0.000000 0.000000 0.000000 7
1440980141.190602 33.409974 -111.893975 416875.615545 3697095.267556 360.560000 0.130000 0.070024 -1.606733 0.000000 0.000000 0.000000 0.000000 0.000000 0.000000 7
1440980141.290610 33.409974 -111.893975 416875.615545 3697095.267556 360.560000 0.130000 0.020000 -1.604080 0.000000 0.000000 0.000000 0.000000 0.000000 0.000000 7
1440980141.390553 33.409974 -111.893975 416875.606246 3697095.267635 360.540000 0.100000 0.090043 -1.598320 0.000000 0.000000 0.000000 0.000000 0.000000 0.000000 7
1440980141.490611 33.409974 -111.893975 416875.606246 3697095.267635 360.540000 0.100000 0.049975 -1.597081 0.000000 0.000000 0.000000 0.000000 0.000000 0.000000 7
1440980141.590632 33.409974 -111.893975 416875.615545 3697095.267556 360.530000 0.060000 0.179958 -1.597954 0.000000 0.000000 0.000000 0.000000 0.000000 0.000000 7
1440980141.690609 33.409974 -111.893975 416875.615545 3697095.267556 360.530000 0.060000 0.000000 -1.598285 0.000000 0.000000 0.000000 0.000000 0.000000 0.000000 7
1440980141.790613 33.409973 -111.893975 416875.624367 3697095.212039 360.510000 0.130000 -0.189975 -1.600607 0.000000 0.000000 0.000000 0.000000 0.000000 0.000000 7
1440980141.890592 33.409973 -111.893975 416875.624367 3697095.212039 360.510000 0.130000 -0.080012 -1.602352 0.000000 0.000000 0.000000 0.000000 0.000000 0.000000 7
1440980141.990604 33.409973 -111.893974 416875.652168 3697095.200712 360.490000 0.100000 -0.009999 -1.605441 0.000000 0.000000 0.000000 0.000000 0.000000 0.000000 7
1440980142.090537 33.409973 -111.893974 416875.652168 3697095.200712 360.490000 0.100000 0.060036 -1.610747 0.000000 0.000000 0.000000 0.000000 0.000000 0.000000 7
1440980142.190491 33.409973 -111.893974 416875.670860 3697095.211640 360.490000 0.070000 0.140066 -1.615389 0.000000 0.000000 0.000000 0.000000 0.000000 0.000000 7
1440980142.290462 33.409973 -111.893974 416875.670860 3697095.211640 360.490000 0.070000 0.060018 -1.618793 0.000000 0.000000 0.000000 0.000000 0.000000 0.000000 7
1440980142.390513 33.409973 -111.893974 416875.670955 3697095.222727 360.480000 0.070000 -0.019990 -1.620748 0.000000 0.000000 0.000000 0.000000 0.000000 0.000000 7
1440980142.690609 33.409974 -111.893975 416875.643441 3697095.267316 360.470000 0.080000 -0.099894 -1.618077 23.740421 0.000000 1.087235 0.000000 1.888832 0.657505 3
1440980142.790612 33.409974 -111.893975 416875.643441 3697095.267316 360.470000 0.080000 0.039995 -1.602282 23.740421 0.000000 1.087235 0.000000 1.888926 0.657235 3
1440980142.890600 33.409974 -111.893975 416875.643536 3697095.278403 360.450000 0.010000 0.330046 -1.561668 23.740421 0.000000 1.087235 0.000000 1.888634 0.658073 3
1440980142.990611 33.409974 -111.893975 416875.643536 3697095.278403 360.450000 0.010000 0.259990 -1.534144 23.740421 0.000000 1.087235 0.000000 1.887856 0.660304 3
1440980143.090667 33.409974 -111.893975 416875.634142 3697095.267396 360.450000 0.020000 0.659682 -1.459113 23.740421 0.000000 1.087235 0.000000 1.886236 0.664916 3
1440980143.190614 33.409974 -111.893975 416875.624939 3697095.278563 360.470000 0.090000 0.440211 -1.411134 23.740421 0.000000 1.087235 0.000000 1.885262 0.667674 3
1440980143.290481 33.409974 -111.893975 416875.624939 3697095.278563 360.470000 0.090000 0.861060 -1.282782 23.740421 0.000000 1.087235 0.000000 1.881121 0.679251 3
1440980143.390495 33.409974 -111.893975 416875.624939 3697095.278563 360.470000 0.090000 0.509920 -1.194276 23.740421 0.000000 1.087235 0.000000 1.878690 0.685948 3
1440980143.490625 33.409974 -111.893975 416875.644012 3697095.333840 360.490000 0.230000 1.058653 -0.990527 23.740421 0.000000 1.087235 0.000000 1.874314 0.697816 3
1440980143.590487 33.409974 -111.893975 416875.644012 3697095.333840 360.490000 0.230000 0.540729 -0.885266 23.740421 0.000000 1.087235 0.000000 1.871420 0.705540 3
1440980143.690556 33.409976 -111.893974 416875.654454 3697095.466807 360.510000 0.380000 1.039287 -0.672859 23.740421 0.000000 1.087235 0.000000 1.866886 0.717450 3
1440980143.790483 33.409977 -111.893974 416875.665467 3697095.666298 360.540000 0.600000 0.380277 -0.574615 23.740421 0.000000 1.087235 0.000000 1.864673 0.723182 3
1440980143.890604 33.409977 -111.893974 416875.665467 3697095.666298 360.540000 0.600000 0.749176 -0.416226 23.740421 0.000000 1.087235 0.000000 1.857847 0.740543 3
1440980143.990500 33.409977 -111.893974 416875.665467 3697095.666298 360.540000 0.600000 0.330307 -0.354302 23.740421 0.000000 1.087235 0.000000 1.853878 0.750423 3
1440980144.090638 33.409980 -111.893974 416875.714437 3697095.954168 360.570000 0.910000 0.589238 -0.266913 23.740421 -1.165720 1.087235 -1.747837 1.977514 0.299061 3
1440980144.190603 33.409983 -111.893974 416875.726498 3697096.275619 360.600000 1.130000 0.530233 -0.203575 23.740421 -0.800377 1.087235 -1.706249 1.976406 0.306302 3
1440980144.290612 33.409983 -111.893974 416875.726498 3697096.275619 360.600000 1.130000 0.259973 -0.177448 23.740421 -0.617702 1.087235 -1.685456 1.976161 0.307873 3
1440980144.390505 33.409987 -111.893973 416875.795113 3697096.685289 360.630000 1.420000 0.420382 -0.138911 23.740421 -0.252361 1.087235 -1.643869 1.975942 0.309278 3
1440980144.490574 33.409987 -111.893973 416875.795113 3697096.685289 360.630000 1.420000 0.179871 -0.126624 23.740421 -0.069687 1.087235 -1.623075 1.975595 0.311485 3
1440980144.590598 33.409990 -111.893973 416875.844940 3697097.072944 360.630000 1.620000 0.279948 -0.109729 23.740421 0.295658 1.087235 -1.581488 1.974616 0.317634 3
1440980144.690503 33.409990 -111.893973 416875.844940 3697097.072944 360.630000 1.620000 0.110100 -0.105610 23.740421 0.478331 1.087235 -1.560694 1.973773 0.322829 3
1440980144.790594 33.409993 -111.893972 416875.875884 3697097.427497 360.640000 1.650000 0.199825 -0.100653 23.740421 0.843674 1.087235 -1.519107 1.971781 0.334785 3
1440980144.890491 33.409993 -111.893972 416875.875884 3697097.427497 360.640000 1.650000 0.050049 -0.100618 23.740421 1.026348 1.087235 -1.498313 1.970401 0.342813 3
1440980144.990629 33.409997 -111.893972 416875.879123 3697097.804465 360.640000 1.700000 -0.029962 -0.099222 23.740421 1.391691 1.087235 -1.456726 1.967791 0.357486 3
1440980145.090931 33.409997 -111.893972 416875.879123 3697097.804465 360.640000 1.700000 0.019943 -0.100653 23.740421 1.574364 1.087235 -1.435932 1.966287 0.365668 3
1440980145.190502 33.410000 -111.893973 416875.863860 3697098.192679 360.630000 1.670000 -0.040162 -0.100583 23.740421 1.939709 1.087235 -1.394345 1.963535 0.380173 3
1440980145.290584 33.410000 -111.893973 416875.863860 3697098.192679 360.630000 1.670000 -0.089927 -0.099554 23.740421 2.122381 1.087235 -1.373551 1.961774 0.389156 3
1440980145.390599 33.410003 -111.893973 416875.811117 3697098.547951 360.600000 1.670000 -0.030000 -0.098000 23.740421 2.487724 1.087235 -1.331964 1.959148 0.402166 3
1440980145.490610 33.410003 -111.893973 416875.811117 3697098.547951 360.600000 1.670000 -0.069989 -0.098768 23.740421 2.670397 1.087235 -1.311170 1.957765 0.408846 3
1440980145.590610 33.410007 -111.893974 416875.749170 3697098.914391 360.570000 1.650000 -0.129998 -0.096429 23.740421 3.035744 1.087235 -1.269583 1.955170 0.421080 3
1440980145.690548 33.410007 -111.893974 416875.749170 3697098.914391 360.570000 1.650000 -0.130085 -0.098070 23.740421 3.401087 1.087235 -1.227996 1.952504 0.433277 3
1440980145.790609 33.410007 -111.893974 416875.749170 3697098.914391 360.570000 1.650000 -0.049967 -0.098035 23.740421 3.583759 1.087235 -1.207202 1.951204 0.439094 3
1440980145.890679 33.410010 -111.893974 416875.705345 3697099.225234 360.540000 1.540000 -0.099942 -0.094981 23.740421 3.949104 1.087235 -1.165615 1.949327 0.447351 3
1440980145.990598 33.410012 -111.893975 416875.680116 3697099.535917 360.520000 1.490000 -0.060046 -0.093096 23.740421 4.131777 1.087235 -1.144822 1.948424 0.451269 3
1440980146.090738 33.410012 -111.893975 416875.680116 3697099.535917 360.520000 1.490000 -0.099867 -0.088890 23.740421 4.497120 1.087235 -1.103234 1.946422 0.459826 3
1440980146.190674 33.410015 -111.893975 416875.673485 3697099.846441 360.520000 1.440000 -0.060037 -0.089448 23.740421 4.679792 1.087235 -1.082441 1.945923 0.461935 3
1440980146.290506 33.410015 -111.893975 416875.673485 3697099.846441 360.520000 1.440000 -0.140209 -0.089780 23.740421 5.045135 1.087235 -1.040853 1.943922 0.470284 3
1440980146.390607 33.410018 -111.893975 416875.648161 3697100.146037 360.540000 1.370000 -0.049954 -0.090687 23.740421 5.227808 1.087235 -1.020060 1.943669 0.471329 3
1440980146.490619 33.410018 -111.893975 416875.648161 3697100.146037 360.540000 1.370000 -0.109985 -0.091124 23.740421 5.593155 1.087235 -0.978473 1.942098 0.477760 3
1440980146.590616 33.410021 -111.893975 416875.650829 3697100.456481 360.560000 1.370000 -0.090006 -0.087842 23.740421 5.775826 1.087235 -0.957679 1.941683 0.479445 3
1440980146.690482 33.410021 -111.893975 416875.650829 3697100.456481 360.560000 1.370000 -0.160194 -0.083706 23.740421 6.141171 1.087235 -0.916092 1.939790 0.487048 3
1440980146.790609 33.410021 -111.893975 416875.650829 3697100.456481 360.560000 1.370000 -0.089899 -0.079482 23.740421 6.323843 1.087235 -0.895298 1.938835 0.490833 3
1440980146.890525 33.410023 -111.893975 416875.634899 3697100.767084 360.560000 1.380000 -0.130094 -0.072833 23.740421 6.689188 1.087235 -0.853711 1.937479 0.496159 3
1440980146.990609 33.410026 -111.893975 416875.628173 3697101.066521 360.570000 1.350000 -0.079932 -0.068469 23.740421 6.871861 1.087235 -0.832917 1.937125 0.497542 3
1440980147.090651 33.410026 -111.893975 416875.628173 3697101.066521 360.570000 1.350000 -0.119959 -0.056758 23.740421 7.237206 1.087235 -0.791330 1.935582 0.503511 3
1440980147.190497 33.410029 -111.893975 416875.621827 3697101.410306 360.560000 1.460000 -0.010015 -0.052185 23.740421 7.419878 1.087235 -0.770536 1.935328 0.504483 3
1440980147.290607 33.410029 -111.893975 416875.621827 3697101.410306 360.560000 1.460000 -0.099900 -0.044174 23.740421 7.785221 1.087235 -0.728949 1.933684 0.510749 3
1440980147.390608 33.410032 -111.893975 416875.624971 3697101.776186 360.570000 1.590000 -0.039999 -0.037943 23.740421 8.150567 1.087235 -0.687362 1.932351 0.515771 3
1440980147.490605 33.410032 -111.893975 416875.624971 3697101.776186 360.570000 1.590000 0.010000 -0.034662 23.740421 8.333239 1.087235 -0.666568 1.931696 0.518217 3
1440980147.590481 33.410036 -111.893975 416875.665690 3697102.186096 360.580000 1.780000 0.010012 -0.038886 23.740421 8.698584 1.087235 -0.624981 1.930644 0.522125 3
1440980147.690498 33.410036 -111.893975 416875.665690 3697102.186096 360.580000 1.780000 -0.039994 -0.039898 23.740421 8.881255 1.087235 -0.604187 1.930048 0.524322 3
1440980147.790606 33.410040 -111.893975 416875.697396 3697102.629347 360.590000 1.930000 -0.079920 -0.046862 23.740421 9.246600 1.087235 -0.562600 1.929273 0.527167 3
1440980147.890488 33.410040 -111.893975 416875.697396 3697102.629347 360.590000 1.930000 -0.070077 -0.052220 23.740421 9.429274 1.087235 -0.541806 1.928817 0.528833 3
1440980147.990609 33.410044 -111.893974 416875.738401 3697103.072519 360.590000 2.080000 -0.129859 -0.063792 23.740421 9.794618 1.087235 -0.500219 1.928097 0.531451 3
1440980148.090643 33.410044 -111.893974 416875.738401 3697103.072519 360.590000 2.080000 -0.039983 -0.068853 23.740421 9.977290 1.087235 -0.479426 1.927362 0.534112 3
1440980148.190610 33.410048 -111.893973 416875.826089 3697103.537466 360.590000 2.240000 -0.120049 -0.077074 23.740421 10.342634 1.087235 -0.437838 1.926101 0.538640 3
1440980148.290625 33.410048 -111.893973 416875.826089 3697103.537466 360.590000 2.240000 0.030000 -0.079744 23.740421 10.525307 1.087235 -0.417045 1.925124 0.542124 3
1440980148.390611 33.410053 -111.893973 416875.895561 3697104.046921 360.600000 2.380000 -0.030000 -0.082816 23.740421 10.890651 1.087235 -0.375457 1.924438 0.544551 3
1440980148.490609 33.410053 -111.893973 416875.895561 3697104.046921 360.600000 2.380000 0.020000 -0.082257 23.740421 11.073323 1.087235 -0.354664 1.923790 0.546838 3
1440980148.590606 33.410058 -111.893972 416876.002323 3697104.567144 360.610000 2.480000 0.050005 -0.081210 23.740421 11.438667 1.087235 -0.313076 1.923325 0.548472 3
1440980148.690614 33.410058 -111.893972 416876.002323 3697104.567144 360.610000 2.480000 0.039996 -0.081612 23.740421 11.621341 1.087235 -0.292283 1.922985 0.549662 3
1440980148.790608 33.410062 -111.893970 416876.136980 3697105.087128 360.620000 2.580000 0.060004 -0.083217 23.740421 11.986685 1.087235 -0.250696 1.923150 0.549084 3
1440980148.890606 33.410062 -111.893970 416876.136980 3697105.087128 360.620000 2.580000 0.090002 -0.079884 23.740421 12.352030 1.087235 -0.209108 1.923290 0.548592 3
1440980148.990484 33.410067 -111.893968 416876.299533 3697105.606872 360.630000 2.720000 0.060063 -0.079081 23.740421 12.534702 1.087235 -0.188315 1.924076 0.545829 3
1440980149.090662 33.410067 -111.893968 416876.299533 3697105.606872 360.630000 2.720000 0.109808 -0.085748 23.740421 12.900046 1.087235 -0.146727 1.925115 0.542155 3
1440980149.190590 33.410067 -111.893968 416876.299533 3697105.606872 360.630000 2.720000 0.070049 -0.090583 23.740421 13.082719 1.087235 -0.125934 1.925668 0.540186 3
1440980149.290488 33.410072 -111.893967 416876.425369 3697106.182371 360.650000 2.810000 0.160163 -0.091176 23.740421 13.448063 1.087235 -0.084347 1.927951 0.531980 3
1440980149.390610 33.410077 -111.893965 416876.597125 3697106.690948 360.650000 2.720000 0.069922 -0.090513 23.740421 13.630736 1.087235 -0.063553 1.929584 0.526028 3
1440980149.490502 33.410077 -111.893965 416876.597125 3697106.690948 360.650000 2.720000 0.080079 -0.086446 23.740421 13.996080 1.087235 -0.021966 1.932568 0.514956 3
1440980149.590603 33.410081 -111.893963 416876.787383 3697107.188278 360.640000 2.660000 0.029972 -0.084107 23.740421 14.178753 1.087235 -0.001172 1.934515 0.507594 3
1440980149.690606 33.410081 -111.893963 416876.787383 3697107.188278 360.640000 2.660000 0.129998 -0.084352 23.740421 14.544098 1.087235 0.040415 1.937462 0.496225 3
1440980149.790624 33.410081 -111.893963 416876.787383 3697107.188278 360.640000 2.660000 0.019996 -0.084142 23.740421 14.726769 1.087235 0.061209 1.938969 0.490304 3
1440980149.890609 33.410086 -111.893961 416876.996239 3697107.685447 360.620000 2.680000 0.150029 -0.080111 23.740421 15.092114 1.087235 0.102796 1.942900 0.474488 3
1440980149.990593 33.410086 -111.893961 416876.996239 3697107.685447 360.620000 2.680000 0.020000 -0.078889 23.740421 15.274787 1.087235 0.123590 1.944627 0.467359 3
1440980150.090810 33.410090 -111.893959 416877.204618 3697108.127181 360.610000 2.520000 0.099805 -0.071087 23.740421 15.640130 1.087235 0.165177 1.948479 0.451031 3
1440980150.190615 33.410094 -111.893957 416877.422391 3697108.579922 360.610000 2.400000 0.020038 -0.069045 23.740421 15.822803 1.087235 0.185970 1.950510 0.442164 3
1440980150.290608 33.410094 -111.893957 416877.422391 3697108.579922 360.610000 2.400000 0.000000 -0.063373 23.740421 16.188147 1.087235 0.227558 1.953484 0.428834 3
1440980150.390507 33.410098 -111.893954 416877.649081 3697108.988233 360.620000 2.350000 0.000000 -0.061505 23.740421 16.370819 1.087235 0.248351 1.955426 0.419891 3
1440980150.490596 33.410098 -111.893954 416877.649081 3697108.988233 360.620000 2.350000 -0.039965 -0.058189 23.740421 16.736164 1.087235 0.289939 1.958107 0.407205 3
1440980150.590606 33.410101 -111.893952 416877.875677 3697109.385458 360.620000 2.270000 0.000000 -0.060214 23.740421 17.101509 1.087235 0.331526 1.960936 0.393355 3
1440980150.690490 33.410101 -111.893952 416877.875677 3697109.385458 360.620000 2.270000 -0.050052 -0.057509 23.740421 17.284180 1.087235 0.352319 1.962041 0.387807 3
1440980150.790604 33.410105 -111.893950 416878.102081 3697109.760508 360.610000 2.150000 -0.109887 -0.056793 23.740421 17.649525 1.087235 0.393907 1.964751 0.373837 3
1440980150.890503 33.410105 -111.893950 416878.102081 3697109.760508 360.610000 2.150000 -0.050053 -0.056514 23.740421 17.832199 1.087235 0.414700 1.965838 0.368074 3
1440980150.990580 33.410108 -111.893947 416878.300781 3697110.157972 360.600000 2.090000 -0.079942 -0.057701 23.740421 18.197542 1.087235 0.456288 1.968262 0.354886 3
1440980151.090527 33.410108 -111.893947 416878.300781 3697110.157972 360.600000 2.090000 -0.040014 -0.058469 23.740421 18.380215 1.087235 0.477081 1.969190 0.349700 3
1440980151.190567 33.410111 -111.893945 416878.508302 3697110.499920 360.580000 2.020000 -0.029989 -0.060511 23.740421 18.745560 1.087235 0.518669 1.971387 0.337093 3
1440980151.290625 33.410111 -111.893945 416878.508302 3697110.499920 360.580000 2.020000 -0.029985 -0.061837 23.740421 18.928232 1.087235 0.539462 1.972202 0.332292 3
1440980151.390609 33.410114 -111.893943 416878.706526 3697110.841948 360.570000 2.020000 -0.120022 -0.065467 23.740421 19.293577 1.087235 0.581049 1.973886 0.322139 3
1440980151.490606 33.410114 -111.893943 416878.706526 3697110.841948 360.570000 2.020000 -0.030001 -0.066078 23.740421 19.476250 1.087235 0.601843 1.974491 0.318413 3
1440980151.590598 33.410118 -111.893941 416878.886533 3697111.228485 360.540000 2.010000 -0.070010 -0.068225 23.740421 19.841595 1.087235 0.643430 1.976002 0.308894 3
1440980151.690626 33.410118 -111.893941 416878.886533 3697111.228485 360.540000 2.010000 -0.039985 -0.067736 23.740421 20.024265 1.087235 0.664224 1.976441 0.306071 3
1440980151.790608 33.410121 -111.893939 416879.057146 3697111.604014 360.490000 1.980000 -0.100022 -0.066706 23.740421 20.389610 1.087235 0.705811 1.977643 0.298210 3
1440980151.890611 33.410121 -111.893939 416879.057146 3697111.604014 360.490000 1.980000 -0.019999 -0.069516 23.740421 20.572283 1.087235 0.726605 1.977953 0.296145 3
1440980151.990610 33.410125 -111.893938 416879.218460 3697111.979624 360.470000 2.010000 -0.030001 -0.074142 23.740421 20.937628 1.087235 0.768192 1.978922 0.289595 3
1440980152.090647 33.410125 -111.893938 416879.218460 3697111.979624 360.470000 2.010000 -0.029988 -0.072676 23.740421 21.120300 1.087235 0.788986 1.979134 0.288144 3
1440980152.190565 33.410128 -111.893936 416879.389073 3697112.355153 360.440000 2.050000 -0.030022 -0.075625 23.740421 21.485645 1.087235 0.830573 1.979926 0.282653 3
1440980152.290610 33.410128 -111.893936 416879.389073 3697112.355153 360.440000 2.050000 0.039988 -0.081018 23.740421 21.850988 1.087235 0.872160 1.980156 0.281035 3
1440980152.390633 33.410132 -111.893934 416879.559782 3697112.741770 360.400000 2.100000 0.069998 -0.077912 23.740421 22.033661 1.087235 0.892954 1.980821 0.276308 3
1440980152.490592 33.410132 -111.893934 416879.559782 3697112.741770 360.400000 2.100000 0.150036 -0.074316 23.740421 22.399006 1.087235 0.934541 1.981325 0.272672 3
1440980152.590612 33.410135 -111.893932 416879.730395 3697113.117299 360.370000 2.150000 0.069981 -0.073897 23.740421 22.581678 1.087235 0.955335 1.981931 0.268234 3
1440980152.690561 33.410135 -111.893932 416879.730395 3697113.117299 360.370000 2.150000 0.240093 -0.075014 23.740421 22.947023 1.087235 0.996922 1.982396 0.264775 3
1440980152.790538 33.410135 -111.893932 416879.730395 3697113.117299 360.370000 2.150000 0.060015 -0.077178 23.740421 23.129696 1.087235 1.017716 1.982606 0.263199 3
1440980152.890608 33.410139 -111.893931 416879.891995 3697113.526170 360.340000 2.190000 0.229869 -0.079203 23.740421 23.740421 1.087235 1.087235 1.983929 0.253034 3
