1441147260.174159 0.000000 0.000000 166021.443081 0.000000 0.000000 0.000000 0.000000 -0.092712 867.615234 0.000000 0.000000 0.000000 -11930064.000000 0.000000 7
1441147260.274167 0.000000 0.000000 166021.443081 0.000000 0.000000 0.000000 0.000000 -0.092799 867.615234 0.000000 0.000000 0.000000 -11930064.000000 0.000000 7
1441147260.374186 0.000000 0.000000 166021.443081 0.000000 0.000000 0.000000 0.000000 -0.092974 867.615234 0.000000 0.000000 0.000000 -11930064.000000 0.000000 7
1441147260.473766 0.000000 0.000000 166021.443081 0.000000 0.000000 0.000000 0.000000 -0.092974 867.615234 0.000000 0.000000 0.000000 -11930064.000000 0.000000 7
1441147260.573748 0.000000 0.000000 166021.443081 0.000000 0.000000 0.000000 0.000000 -0.092974 867.615234 0.000000 0.000000 0.000000 -11930064.000000 0.000000 7
1441147260.673725 0.000000 0.000000 166021.443081 0.000000 0.000000 0.000000 0.000000 -0.092974 867.615234 0.000000 0.000000 0.000000 -11930064.000000 0.000000 7
1441147260.773727 0.000000 0.000000 166021.443081 0.000000 0.000000 0.000000 0.000000 -0.092974 867.615234 0.000000 0.000000 0.000000 -11930064.000000 0.000000 7
1441147260.874135 0.000000 0.000000 166021.443081 0.000000 0.000000 0.000000 0.000000 -0.092834 867.615234 0.000000 0.000000 0.000000 -11930064.000000 0.000000 7
1441147260.974143 0.000000 0.000000 166021.443081 0.000000 0.000000 0.000000 0.000000 -0.092747 867.615234 0.000000 0.000000 0.000000 -11930064.000000 0.000000 7
1441147261.074175 0.000000 0.000000 166021.443081 0.000000 0.000000 0.000000 0.000000 -0.092660 867.615234 0.000000 0.000000 0.000000 -11930064.000000 0.000000 7
1441147261.174169 0.000000 0.000000 166021.443081 0.000000 0.000000 0.000000 0.000000 -0.092084 867.615234 0.000000 0.000000 0.000000 -11930064.000000 0.000000 7
1441147261.274156 0.000000 0.000000 166021.443081 0.000000 0.000000 0.000000 0.000000 -0.092363 867.615234 0.000000 0.000000 0.000000 -11930064.000000 0.000000 7
1441147261.374161 0.000000 0.000000 166021.443081 0.000000 0.000000 0.000000 0.000000 -0.092223 867.615234 0.000000 0.000000 0.000000 -11930064.000000 0.000000 7
1441147261.474158 0.000000 0.000000 166021.443081 0.000000 0.000000 0.000000 0.000000 -0.091926 867.615234 0.000000 0.000000 0.000000 -11930064.000000 0.000000 7
1441147261.574023 0.000000 0.000000 166021.443081 0.000000 0.000000 0.000000 0.000000 -0.091665 867.615234 0.000000 0.000000 0.000000 -11930064.000000 0.000000 7
1441147261.674109 0.000000 0.000000 166021.443081 0.000000 0.000000 0.000000 0.000000 -0.091438 867.615234 0.000000 0.000000 0.000000 -11930064.000000 0.000000 7
1441147261.774187 0.000000 0.000000 166021.443081 0.000000 0.000000 0.000000 0.000000 -0.091769 867.615234 0.000000 0.000000 0.000000 -11930064.000000 0.000000 7
1441147261.874111 0.000000 0.000000 166021.443081 0.000000 0.000000 0.000000 0.000000 -0.090687 867.615234 0.000000 0.000000 0.000000 -11930064.000000 0.000000 7
1441147261.974174 0.000000 0.000000 166021.443081 0.000000 0.000000 0.000000 0.000000 -0.090338 867.615234 0.000000 0.000000 0.000000 -11930064.000000 0.000000 7
1441147262.074175 0.000000 0.000000 166021.443081 0.000000 0.000000 0.000000 0.000000 -0.089518 867.615234 0.000000 0.000000 0.000000 -11930064.000000 0.000000 7
1441147262.174169 0.000000 0.000000 166021.443081 0.000000 0.000000 0.000000 0.000000 -0.088558 867.615234 0.000000 0.000000 0.000000 -11930064.000000 0.000000 7
1441147262.274145 0.000000 0.000000 166021.443081 0.000000 0.000000 0.000000 0.000000 -0.085469 867.615234 0.000000 0.000000 0.000000 -11930064.000000 0.000000 7
1441147262.374213 0.000000 0.000000 166021.443081 0.000000 0.000000 0.000000 0.000000 -0.084753 867.615234 0.000000 0.000000 0.000000 -11930064.000000 0.000000 7
1441147262.474192 0.000000 0.000000 166021.443081 0.000000 0.000000 0.000000 0.000000 -0.080826 867.615234 0.000000 0.000000 0.000000 -11930064.000000 0.000000 7
1441147262.574186 0.000000 0.000000 166021.443081 0.000000 0.000000 0.000000 0.000000 -0.079395 867.615234 0.000000 0.000000 0.000000 -11930064.000000 0.000000 7
1441147262.674202 0.000000 0.000000 166021.443081 0.000000 0.000000 0.000000 0.000000 -0.072222 867.615234 0.000000 0.000000 0.000000 -11930064.000000 0.000000 7
1441147262.774184 0.000000 0.000000 166021.443081 0.000000 0.000000 0.000000 0.000000 -0.067160 867.615234 0.000000 0.000000 0.000000 -11930064.000000 0.000000 7
1441147262.874191 0.000000 0.000000 166021.443081 0.000000 0.000000 0.000000 0.000000 -0.060772 867.615234 0.000000 0.000000 0.000000 -11930064.000000 0.000000 7
1441147262.974158 33.409960 -111.893963 416876.690334 3697093.728164 356.590000 0.010000 0.000000 -0.050213 0.000000 0.000000 0.000000 0.000000 0.000000 0.000000 7
1441147263.074209 33.409960 -111.893963 416876.699728 3697093.739171 356.590000 0.030000 2.358818 0.130655 0.000000 0.000000 0.000000 0.000000 0.000000 0.000000 7
1441147263.174210 33.409960 -111.893963 416876.699728 3697093.739171 356.590000 0.030000 0.289999 0.199299 0.000000 0.000000 0.000000 0.000000 0.000000 0.000000 7
1441147263.273759 33.409960 -111.893963 416876.699728 3697093.739171 356.590000 0.030000 0.289999 0.199299 0.000000 0.000000 0.000000 0.000000 0.000000 0.000000 7
1441147263.374225 33.409960 -111.893963 416876.727814 3697093.761106 356.590000 0.100000 -0.034998 0.284838 0.000000 0.000000 0.000000 0.000000 0.000000 0.000000 7
1441147263.474212 33.409961 -111.893962 416876.765294 3697093.794048 356.590000 0.220000 1.060177 0.411671 0.000000 0.000000 0.000000 0.000000 0.000000 0.000000 7
1441147263.851724 33.409961 -111.893962 416876.765294 3697093.794048 356.590000 0.220000 1.004273 0.657727 0.000000 0.000000 0.000000 0.000000 0.000000 0.000000 7
1441147263.852032 33.409961 -111.893962 416876.812168 3697093.837998 356.620000 0.290000 1.004273 0.657727 0.000000 0.000000 0.000000 0.000000 0.000000 0.000000 7
1441147263.952534 33.409961 -111.893961 416876.886843 3697093.870621 356.670000 0.350000 1.526127 0.820950 0.000000 0.000000 0.000000 0.000000 0.000000 0.000000 7
1441147264.052526 33.409962 -111.893961 416876.933526 3697093.892396 356.710000 0.260000 0.050006 0.873782 0.000000 0.000000 0.000000 0.000000 0.000000 0.000000 7
1441147264.152523 33.409962 -111.893961 416876.933526 3697093.892396 356.710000 0.260000 -0.280003 0.856834 0.000000 0.000000 0.000000 0.000000 0.000000 0.000000 7
1441147264.251986 33.409962 -111.893961 416876.933526 3697093.892396 356.710000 0.260000 -0.280003 0.856834 0.000000 0.000000 0.000000 0.000000 0.000000 0.000000 7
1441147264.351989 33.409962 -111.893961 416876.933526 3697093.892396 356.710000 0.260000 -0.280003 0.856834 0.000000 0.000000 0.000000 0.000000 0.000000 0.000000 7
1441147264.452407 33.409961 -111.893960 416876.970530 3697093.869902 356.730000 0.210000 -0.386842 0.563986 0.000000 0.000000 0.000000 0.000000 0.000000 0.000000 7
1441147264.552512 33.409961 -111.893960 416876.960946 3697093.836720 356.750000 0.180000 -0.828941 0.367741 0.000000 0.000000 0.000000 0.000000 0.000000 0.000000 7
1441147264.652514 33.409960 -111.893960 416876.951171 3697093.781363 356.760000 0.270000 -0.109999 0.315730 0.000000 0.000000 0.000000 0.000000 0.000000 0.000000 7
1441147264.752508 33.409960 -111.893960 416876.951171 3697093.781363 356.760000 0.270000 0.020001 0.238133 0.000000 0.000000 0.000000 0.000000 0.000000 0.000000 7
1441147264.852471 33.409960 -111.893960 416876.960279 3697093.759109 356.750000 0.200000 0.060032 0.184673 0.000000 0.000000 0.000000 0.000000 0.000000 0.000000 7
1441147264.952518 33.409960 -111.893960 416876.960279 3697093.759109 356.750000 0.200000 0.159897 0.163694 0.000000 0.000000 0.000000 0.000000 0.000000 0.000000 7
1441147265.052513 33.409960 -111.893961 416876.913691 3697093.748421 356.760000 0.130000 0.360029 0.132261 0.000000 0.000000 0.000000 0.000000 0.000000 0.000000 7
1441147265.152516 33.409960 -111.893961 416876.913691 3697093.748421 356.760000 0.130000 0.149991 0.121021 0.000000 0.000000 0.000000 0.000000 0.000000 0.000000 7
1441147265.252540 33.409960 -111.893962 416876.848696 3697093.760068 356.770000 0.070000 0.189959 0.109676 0.000000 0.000000 0.000000 0.000000 0.000000 0.000000 7
1441147265.352444 33.409960 -111.893962 416876.848696 3697093.760068 356.770000 0.070000 0.020021 0.108786 0.000000 0.000000 0.000000 0.000000 0.000000 0.000000 7
1441147265.452457 33.409960 -111.893962 416876.802012 3697093.738292 356.800000 0.140000 -0.059986 0.112556 0.000000 0.000000 0.000000 0.000000 0.000000 0.000000 7
1441147265.552502 33.409960 -111.893962 416876.802012 3697093.738292 356.800000 0.140000 -0.069968 0.116693 0.000000 0.000000 0.000000 0.000000 0.000000 0.000000 7
1441147265.652511 33.409960 -111.893963 416876.736541 3697093.694503 356.810000 0.240000 -0.049996 0.132261 0.000000 0.000000 0.000000 0.000000 0.000000 0.000000 7
1441147265.752531 33.409960 -111.893963 416876.736541 3697093.694503 356.810000 0.240000 0.029994 0.144234 0.000000 0.000000 0.000000 0.000000 0.000000 0.000000 7
1441147265.852549 33.409959 -111.893964 416876.652473 3697093.650873 356.830000 0.300000 0.199963 0.164427 0.000000 0.000000 0.000000 0.000000 0.000000 0.000000 7
1441147265.952539 33.409959 -111.893964 416876.652473 3697093.650873 356.830000 0.300000 0.020006 0.172212 0.000000 0.000000 0.000000 0.000000 0.000000 0.000000 7
1441147266.252519 33.409958 -111.893965 416876.493444 3697093.541358 356.890000 0.350000 0.050000 0.201324 28.853752 3.228928 0.322848 3.489947 0.992523 -0.122054 3
1441147266.351935 33.409958 -111.893965 416876.493444 3697093.541358 356.890000 0.350000 0.050000 0.201324 28.853752 3.228928 0.322848 3.489947 0.992523 -0.122054 3
1441147266.452478 33.409958 -111.893966 416876.418579 3697093.486561 356.940000 0.320000 0.195041 0.372959 28.853752 3.502623 0.322848 3.456119 0.992588 -0.121524 3
1441147266.552515 33.409958 -111.893966 416876.418579 3697093.486561 356.940000 0.320000 0.349864 0.464729 28.853752 3.593855 0.322848 3.444844 0.992481 -0.122399 3
1441147266.652466 33.409958 -111.893966 416876.390588 3697093.475713 356.990000 0.130000 0.350166 0.571525 28.853752 3.685085 0.322848 3.433568 0.992387 -0.123158 3
1441147266.752529 33.409958 -111.893966 416876.390874 3697093.508975 357.050000 0.170000 1.629257 0.886051 28.853752 3.958782 0.322848 3.399740 0.992036 -0.125957 3
1441147266.852491 33.409958 -111.893966 416876.390874 3697093.508975 357.050000 0.170000 0.650141 0.960298 28.853752 4.050013 0.322848 3.388465 0.991760 -0.128106 3
1441147266.952527 33.409959 -111.893966 416876.391731 3697093.608760 357.100000 0.380000 1.149612 1.058472 28.853752 4.232477 0.322848 3.365913 0.991086 -0.133223 3
1441147267.052512 33.409959 -111.893966 416876.391731 3697093.608760 357.100000 0.380000 0.540069 1.079381 28.853752 4.323709 0.322848 3.354637 0.990593 -0.136840 3
1441147267.152548 33.409959 -111.893966 416876.391731 3697093.608760 357.100000 0.380000 0.519811 1.078037 28.853752 4.414940 0.322848 3.343362 0.990136 -0.140111 3
1441147267.251990 33.409959 -111.893966 416876.391731 3697093.608760 357.100000 0.380000 0.519811 1.078037 28.853752 4.414940 0.322848 3.343362 0.990136 -0.140111 3
1441147267.351989 33.409959 -111.893966 416876.391731 3697093.608760 357.100000 0.380000 0.519811 1.078037 28.853752 4.414940 0.322848 3.343362 0.990136 -0.140111 3
1441147267.451947 33.409959 -111.893966 416876.391731 3697093.608760 357.100000 0.380000 0.519811 1.078037 28.853752 4.414940 0.322848 3.343362 0.990136 -0.140111 3
1441147267.551960 33.409959 -111.893966 416876.391731 3697093.608760 357.100000 0.380000 0.519811 1.078037 28.853752 4.414940 0.322848 3.343362 0.990136 -0.140111 3
1441147267.652519 33.409962 -111.893966 416876.450285 3697093.929812 357.220000 0.830000 0.890052 0.787719 28.853752 4.871099 0.322848 3.286983 0.988547 -0.150911 3
1441147267.752536 33.409962 -111.893966 416876.450285 3697093.929812 357.220000 0.830000 -0.009999 0.626137 28.853752 5.053564 0.322848 3.264431 0.988175 -0.153327 3
1441147267.852513 33.409964 -111.893965 416876.489670 3697094.184500 357.300000 1.070000 -1.740342 0.436123 28.853752 5.327259 0.322848 3.230603 0.987956 -0.154737 3
1441147267.952513 33.409967 -111.893965 416876.529437 3697094.483537 357.360000 1.310000 0.020000 0.318313 28.853752 5.600954 0.322848 3.196776 0.987790 -0.155788 3
1441147268.052388 33.409967 -111.893965 416876.529437 3697094.483537 357.360000 1.310000 -0.040050 0.290702 28.853752 5.692186 0.322848 3.185500 0.987650 -0.156676 3
1441147268.152515 33.409967 -111.893965 416876.529437 3697094.483537 357.360000 1.310000 -0.019975 0.254452 28.853752 5.874649 0.322848 3.162949 0.987550 -0.157306 3
1441147268.252383 33.409972 -111.893964 416876.608589 3697095.037261 357.410000 1.340000 -0.040041 0.242217 14.431804 5.951845 12.361580 3.153408 0.987634 -0.156778 3
1441147268.352368 33.409972 -111.893964 416876.608589 3697095.037261 357.410000 1.340000 -0.030004 0.115314 14.431804 5.951845 12.361580 3.153408 0.987470 -0.157805 3
1441147268.452393 33.409974 -111.893964 416876.610970 3697095.314443 357.420000 1.310000 0.029993 0.032917 14.431804 5.951845 12.361580 3.153408 0.987424 -0.158091 3
1441147268.552431 33.409977 -111.893964 416876.622650 3697095.591545 357.470000 1.320000 0.039986 -0.115122 14.431804 5.951845 12.361580 3.153408 0.986929 -0.161157 3
1441147268.935646 33.409977 -111.893964 416876.622650 3697095.591545 357.470000 1.320000 -0.007830 -0.340741 14.431804 5.951845 12.361580 3.153408 0.986638 -0.162929 3
1441147268.935942 33.409979 -111.893964 416876.643724 3697095.879655 357.500000 1.350000 -0.007830 -0.340741 14.431804 4.404952 12.361580 6.934179 0.830499 0.557021 3
1441147269.036456 33.409982 -111.893964 416876.664798 3697096.167764 357.500000 1.330000 0.069394 -0.355070 14.431804 4.485795 12.361580 6.977938 0.826743 0.562580 3
1441147269.136454 33.409982 -111.893964 416876.664798 3697096.167764 357.500000 1.330000 -0.120002 -0.374775 14.431804 4.647480 12.361580 7.065456 0.822961 0.568098 3
1441147269.236343 33.409984 -111.893963 416876.722876 3697096.433380 357.510000 1.280000 -0.100107 -0.379853 14.431804 4.728323 12.361580 7.109215 0.821739 0.569864 3
1441147269.336475 33.409984 -111.893963 416876.722876 3697096.433380 357.510000 1.280000 -0.369528 -0.386730 14.431804 4.890008 12.361580 7.196733 0.819743 0.572732 3
1441147269.436453 33.409987 -111.893962 416876.790062 3697096.676740 357.500000 1.220000 0.100019 -0.384845 14.431804 4.970851 12.361580 7.240492 0.819315 0.573344 3
1441147269.536453 33.409987 -111.893962 416876.790062 3697096.676740 357.500000 1.220000 -0.450006 -0.384653 14.431804 5.132536 12.361580 7.328011 0.818398 0.574651 3
1441147269.636468 33.409988 -111.893961 416876.884762 3697096.875512 357.500000 1.140000 -0.170003 -0.381285 14.431804 5.213379 12.361580 7.371769 0.818390 0.574663 3
1441147269.736435 33.409988 -111.893961 416876.884762 3697096.875512 357.500000 1.140000 -0.020003 -0.382419 14.431804 5.375064 12.361580 7.459288 0.817909 0.575348 3
1441147269.836453 33.409990 -111.893960 416876.979273 3697097.052110 357.530000 1.020000 0.089984 -0.383938 14.431804 5.455907 12.361580 7.503047 0.817784 0.575525 3
1441147269.936339 33.409990 -111.893960 416876.979273 3697097.052110 357.530000 1.020000 0.050056 -0.389383 14.431804 5.617592 12.361580 7.590565 0.817119 0.576469 3
1441147270.036443 33.409992 -111.893959 416877.083081 3697097.228628 357.560000 1.030000 0.419581 -0.390744 14.431804 5.698435 12.361580 7.634324 0.817129 0.576455 3
1441147270.136463 33.409992 -111.893959 416877.083081 3697097.228628 357.560000 1.030000 -0.019997 -0.396940 14.431804 5.860120 12.361580 7.721842 0.816280 0.577657 3
1441147270.236451 33.409993 -111.893958 416877.196188 3697097.405065 357.630000 1.070000 0.000000 -0.397289 14.431804 5.940963 12.361580 7.765601 0.816324 0.577595 3
1441147270.336475 33.409993 -111.893958 416877.196188 3697097.405065 357.630000 1.070000 0.179961 -0.398319 14.431804 6.102648 12.361580 7.853119 0.816061 0.577966 3
1441147270.436454 33.409995 -111.893957 416877.318594 3697097.581423 357.680000 1.080000 0.180033 -0.396818 14.431804 6.183491 12.361580 7.896878 0.816264 0.577679 3
1441147270.536460 33.409995 -111.893957 416877.318594 3697097.581423 357.680000 1.080000 0.190007 -0.399192 14.431804 6.345176 12.361580 7.984396 0.815951 0.578121 3
1441147270.636458 33.409996 -111.893956 416877.440905 3697097.746694 357.730000 1.040000 0.099995 -0.404323 14.431804 6.506861 12.361580 8.071915 0.815598 0.578619 3
1441147270.736441 33.409996 -111.893956 416877.440905 3697097.746694 357.730000 1.040000 0.050007 -0.405492 14.431804 6.587704 12.361580 8.115673 0.815448 0.578830 3
1441147270.836452 33.409998 -111.893954 416877.544523 3697097.901037 357.770000 1.000000 0.049995 -0.408267 14.431804 6.749389 12.361580 8.203192 0.815498 0.578759 3
1441147270.936456 33.409998 -111.893954 416877.544523 3697097.901037 357.770000 1.000000 0.010000 -0.408739 14.431804 6.830232 12.361580 8.246950 0.815555 0.578679 3
1441147271.036476 33.409998 -111.893954 416877.544523 3697097.901037 357.770000 1.000000 -0.029994 -0.407796 14.431804 6.911075 12.361580 8.290709 0.815614 0.578596 3
1441147271.136360 33.409999 -111.893953 416877.657630 3697098.077474 357.780000 1.040000 -0.100115 -0.407447 14.431804 7.072760 12.361580 8.378227 0.816328 0.577589 3
1441147271.236445 33.410001 -111.893952 416877.780036 3697098.253832 357.800000 1.070000 -0.179844 -0.405440 14.431804 7.234446 12.361580 8.465746 0.816900 0.576780 3
1441147271.336377 33.410001 -111.893952 416877.780036 3697098.253832 357.800000 1.070000 -0.040035 -0.405335 14.431804 7.315288 12.361580 8.509504 0.817231 0.576310 3
1441147271.436412 33.410002 -111.893951 416877.892953 3697098.408095 357.810000 1.000000 0.009995 -0.404829 14.431804 7.396131 12.361580 8.553264 0.817968 0.575264 3
1441147271.536470 33.410002 -111.893951 416877.892953 3697098.408095 357.810000 1.000000 -0.239865 -0.410065 14.431804 7.557816 12.361580 8.640781 0.817456 0.575991 3
1441147271.636366 33.410004 -111.893949 416878.015168 3697098.562279 357.810000 0.980000 -0.170173 -0.406958 14.431804 7.719501 12.361580 8.728300 0.817661 0.575699 3
1441147271.736474 33.410004 -111.893949 416878.015168 3697098.562279 357.810000 0.980000 -0.109882 -0.404375 14.431804 7.800344 12.361580 8.772059 0.817737 0.575591 3
1441147271.836380 33.410005 -111.893948 416878.146682 3697098.716382 357.780000 0.990000 -0.070067 -0.399750 14.431804 7.962029 12.361580 8.859577 0.818453 0.574574 3
1441147271.936402 33.410005 -111.893948 416878.146682 3697098.716382 357.780000 0.990000 -0.079983 -0.396521 14.431804 8.042871 12.361580 8.903336 0.818426 0.574612 3
1441147272.036381 33.410007 -111.893947 416878.268897 3697098.870565 357.740000 1.010000 -0.040009 -0.394392 14.431804 8.204557 12.361580 8.990854 0.819139 0.573595 3
1441147272.136458 33.410007 -111.893947 416878.268897 3697098.870565 357.740000 1.010000 -0.099924 -0.392961 14.431804 8.366242 12.361580 9.078372 0.818944 0.573874 3
1441147272.236458 33.410008 -111.893945 416878.400220 3697099.002494 357.750000 0.980000 0.030001 -0.394567 14.431804 8.447084 12.361580 9.122131 0.819480 0.573107 3
1441147272.336436 33.410008 -111.893945 416878.400220 3697099.002494 357.750000 0.980000 -0.120022 -0.394846 14.431804 8.608770 12.361580 9.209650 0.819600 0.572936 3
1441147272.436454 33.410009 -111.893944 416878.522340 3697099.145590 357.760000 1.000000 -0.069986 -0.397603 14.431804 8.689613 12.361580 9.253408 0.820011 0.572348 3
1441147272.536453 33.410009 -111.893944 416878.522340 3697099.145590 357.760000 1.000000 -0.050001 -0.404044 14.431804 8.851297 12.361580 9.340926 0.820006 0.572355 3
1441147272.636449 33.410010 -111.893943 416878.644555 3697099.299774 357.750000 1.020000 -0.020000 -0.408355 14.431804 8.932140 12.361580 9.384686 0.820538 0.571592 3
1441147272.736479 33.410010 -111.893943 416878.644555 3697099.299774 357.750000 1.020000 -0.029992 -0.421061 14.431804 9.093826 12.361580 9.472204 0.820651 0.571429 3
1441147272.835900 33.410010 -111.893943 416878.644555 3697099.299774 357.750000 1.020000 -0.029992 -0.421061 14.431804 9.093826 12.361580 9.472204 0.820651 0.571429 3
1441147272.936331 33.410012 -111.893941 416878.766771 3697099.453957 357.730000 1.050000 0.080058 -0.435355 14.431804 9.336353 12.361580 9.603481 0.821630 0.570021 3
1441147273.036468 33.410013 -111.893940 416878.898475 3697099.630235 357.700000 1.060000 -0.009986 -0.438828 14.431804 9.417196 12.361580 9.647240 0.822499 0.568766 3
1441147273.136477 33.410013 -111.893940 416878.898475 3697099.630235 357.700000 1.060000 0.040002 -0.442755 14.431804 9.498039 12.361580 9.690999 0.822886 0.568206 3
1441147273.236454 33.410015 -111.893939 416879.011392 3697099.784498 357.690000 1.010000 0.100010 -0.447694 14.431804 9.659725 12.361580 9.778517 0.825193 0.564851 3
1441147273.336349 33.410015 -111.893939 416879.011392 3697099.784498 357.690000 1.010000 0.150154 -0.444623 14.431804 9.821409 12.361580 9.866035 0.828239 0.560375 3
1441147273.436455 33.410016 -111.893937 416879.152014 3697099.916347 357.700000 1.010000 -0.039959 -0.440416 14.431804 9.902252 12.361580 9.909794 0.830825 0.556534 3
1441147273.536447 33.410016 -111.893937 416879.152014 3697099.916347 357.700000 1.010000 -0.130009 -0.432789 14.431804 10.063938 12.361580 9.997313 0.835632 0.549289 3
1441147273.636338 33.410017 -111.893936 416879.311233 3697100.048036 357.680000 1.080000 0.010011 -0.430259 14.431804 10.144781 12.361580 10.041071 0.838551 0.544823 3
1441147274.011770 33.410017 -111.893936 416879.311233 3697100.048036 357.680000 1.080000 0.047964 -0.409821 14.431804 10.306466 12.361580 10.128590 0.843825 0.536618 3
1441147274.012275 33.410019 -111.893932 416879.685272 3697100.288761 357.630000 1.150000 0.047964 -0.409821 14.431804 10.629837 12.361580 10.303625 0.855668 0.517525 3
1441147274.112718 33.410019 -111.893932 416879.685272 3697100.288761 357.630000 1.150000 -0.029695 -0.414481 14.431804 10.791521 12.361580 10.391144 0.860779 0.508979 3
1441147274.212723 33.410020 -111.893930 416879.872196 3697100.398036 357.580000 1.120000 -0.010000 -0.415703 14.431804 10.872364 12.361580 10.434903 0.863942 0.503591 3
1441147274.312893 33.410020 -111.893930 416879.872196 3697100.398036 357.580000 1.120000 -0.019968 -0.418670 14.431804 11.034050 12.361580 10.522421 0.869059 0.494708 3
1441147274.412906 33.410021 -111.893927 416880.077622 3697100.496063 357.540000 1.180000 -0.029997 -0.420834 14.431804 11.114893 12.361580 10.566180 0.872358 0.488868 3
1441147274.512891 33.410021 -111.893927 416880.077622 3697100.496063 357.540000 1.180000 0.230013 -0.425092 14.431804 11.276577 12.361580 10.653698 0.877617 0.479361 3
1441147274.612895 33.410022 -111.893925 416880.283048 3697100.594091 357.500000 1.200000 0.139994 -0.423417 14.431804 11.357420 12.361580 10.697457 0.881117 0.472898 3
1441147274.712912 33.410022 -111.893925 416880.283048 3697100.594091 357.500000 1.200000 0.289948 -0.418041 14.431804 11.519106 12.361580 10.784975 0.887468 0.460869 3
1441147274.812898 33.410022 -111.893925 416880.283048 3697100.594091 357.500000 1.200000 0.180035 -0.412509 14.431804 11.599948 12.361580 10.828734 0.890665 0.454660 3
1441147274.912896 33.410023 -111.893923 416880.506881 3697100.669785 357.490000 1.210000 0.319982 -0.407552 14.431804 11.761634 12.361580 10.916252 0.897201 0.441621 3
1441147275.012823 33.410024 -111.893920 416880.758705 3697100.756326 357.490000 1.320000 0.070060 -0.405615 14.431804 11.842476 12.361580 10.960011 0.900735 0.434369 3
1441147275.112896 33.410024 -111.893920 416880.758705 3697100.756326 357.490000 1.320000 0.339718 -0.401600 14.431804 12.004162 12.361580 11.047529 0.906357 0.422512 3
1441147275.212737 33.410024 -111.893920 416880.758705 3697100.756326 357.490000 1.320000 0.140214 -0.398546 14.431804 12.085004 12.361580 11.091289 0.908854 0.417113 3
1441147275.312817 33.410024 -111.893917 416881.028935 3697100.820533 357.490000 1.390000 0.099920 -0.393868 14.431804 12.246690 12.361580 11.178806 0.913732 0.406317 3
1441147275.412910 33.410025 -111.893914 416881.299166 3697100.884740 357.500000 1.420000 0.039965 -0.391792 14.431804 12.327532 12.361580 11.222566 0.916123 0.400897 3
1441147275.512910 33.410025 -111.893914 416881.299166 3697100.884740 357.500000 1.420000 -0.020003 -0.391303 14.431804 12.489218 12.361580 11.310083 0.919724 0.392565 3
1441147275.612890 33.410025 -111.893914 416881.299166 3697100.884740 357.500000 1.420000 -0.110009 -0.392071 14.431804 12.570060 12.361580 11.353843 0.921456 0.388483 3
1441147275.712923 33.410026 -111.893911 416881.569396 3697100.948947 357.490000 1.370000 -0.199990 -0.394235 14.431804 12.731745 12.361580 11.441361 0.924958 0.380069 3
1441147275.812889 33.410026 -111.893909 416881.793039 3697101.002466 357.460000 1.240000 0.090011 -0.395876 14.431804 12.893431 12.361580 11.528879 0.927768 0.373158 3
1441147275.912766 33.410026 -111.893909 416881.793039 3697101.002466 357.460000 1.240000 -0.270298 -0.394968 14.431804 12.974274 12.361580 11.572639 0.928775 0.370643 3
1441147276.012854 33.410027 -111.893906 416882.026265 3697101.089167 357.430000 1.220000 -0.479589 -0.393642 14.431804 13.135959 12.361580 11.660156 0.930724 0.365722 3
1441147276.112741 33.410027 -111.893906 416882.026265 3697101.089167 357.430000 1.220000 -0.200217 -0.393258 14.431804 13.216802 12.361580 11.703916 0.931404 0.363987 3
1441147276.212842 33.410027 -111.893904 416882.240800 3697101.164941 357.410000 1.150000 -0.269730 -0.392036 14.431804 13.378487 12.361580 11.791433 0.932717 0.360609 3
1441147276.312861 33.410027 -111.893904 416882.240800 3697101.164941 357.410000 1.150000 -0.139976 -0.392751 14.431804 13.459330 12.361580 11.835193 0.932940 0.360031 3
1441147276.412874 33.410028 -111.893902 416882.427533 3697101.252041 357.390000 1.090000 -0.149990 -0.390413 14.431804 13.621015 12.361580 11.922710 0.933817 0.357751 3
1441147276.512700 33.410028 -111.893902 416882.427533 3697101.252041 357.390000 1.090000 0.240400 -0.391390 14.431804 13.701858 12.361580 11.966470 0.933882 0.357581 3
1441147276.612894 33.410029 -111.893900 416882.605159 3697101.361396 357.380000 1.050000 -0.279491 -0.390256 14.431804 13.863543 12.361580 12.053988 0.934256 0.356603 3
1441147276.712773 33.410029 -111.893900 416882.605159 3697101.361396 357.380000 1.050000 -0.070088 -0.388022 14.431804 13.944386 12.361580 12.097747 0.934030 0.357195 3
1441147276.812893 33.410031 -111.893898 416882.783070 3697101.504013 357.360000 1.090000 -0.049940 -0.386137 14.431804 14.106071 12.361580 12.185265 0.933687 0.358091 3
1441147276.912721 33.410031 -111.893898 416882.783070 3697101.504013 357.360000 1.090000 0.000000 -0.383152 14.431804 14.431804 12.361580 12.361580 0.931670 0.363306 3
1441147277.012902 33.410032 -111.893897 416882.942480 3697101.657876 357.360000 1.100000 0.149757 -0.361301 28.853752 14.431804 0.322848 12.361580 0.931929 0.362640 3
1441147277.112712 33.410032 -111.893897 416882.942480 3697101.657876 357.360000 1.100000 -0.040066 -0.256267 28.853752 14.431804 0.322848 12.361580 0.931626 0.363419 3
1441147277.212905 33.410034 -111.893895 416883.102080 3697101.833915 357.380000 1.210000 0.019965 -0.020316 28.853752 14.431804 0.322848 12.361580 0.931171 0.364581 3
1441147277.312716 33.410034 -111.893895 416883.102080 3697101.833915 357.380000 1.210000 -0.040071 0.080372 28.853752 14.431804 0.322848 12.361580 0.930191 0.367076 3
1441147277.412820 33.410035 -111.893894 416883.243368 3697102.043375 357.390000 1.270000 -0.009990 0.226753 28.853752 14.458945 0.322848 12.338923 0.929892 0.367831 3
1441147277.512579 33.410035 -111.893894 416883.243368 3697102.043375 357.390000 1.270000 0.000000 0.281033 28.853752 14.529514 0.322848 12.280015 0.932193 0.361963 3
1441147277.612727 33.410038 -111.893892 416883.366155 3697102.264082 357.410000 1.270000 -0.159820 0.361109 28.853752 14.670651 0.322848 12.162201 0.936733 0.350043 3
1441147277.712692 33.410038 -111.893892 416883.366155 3697102.264082 357.410000 1.270000 -0.050001 0.389243 28.853752 14.741220 0.322848 12.103295 0.938338 0.345719 3
1441147277.812698 33.410040 -111.893891 416883.470726 3697102.529298 357.430000 1.350000 0.099996 0.428600 28.853752 14.882357 0.322848 11.985479 0.941335 0.337473 3
1441147277.912690 33.410040 -111.893891 416883.470726 3697102.529298 357.430000 1.350000 -0.110009 0.441551 28.853752 14.952926 0.322848 11.926574 0.942443 0.334365 3
1441147278.012694 33.410042 -111.893890 416883.593988 3697102.805441 357.450000 1.500000 -0.259986 0.459144 28.853752 15.094064 0.322848 11.808758 0.945213 0.326454 3
1441147278.112672 33.410042 -111.893890 416883.593988 3697102.805441 357.450000 1.500000 -0.070015 0.466160 28.853752 15.164632 0.322848 11.749852 0.946086 0.323914 3
1441147278.212654 33.410045 -111.893889 416883.680533 3697103.137340 357.470000 1.670000 -0.190032 0.476073 28.853752 15.305769 0.322848 11.632036 0.948445 0.316941 3
1441147278.312694 33.410045 -111.893889 416883.680533 3697103.137340 357.470000 1.670000 0.000000 0.479163 28.853752 15.376337 0.322848 11.573131 0.949007 0.315256 3
1441147278.412673 33.410049 -111.893888 416883.748767 3697103.502661 357.490000 1.790000 -0.060022 0.486894 28.853752 15.517474 0.322848 11.455315 0.951053 0.309027 3
1441147278.512654 33.410049 -111.893888 416883.748767 3697103.502661 357.490000 1.790000 -0.030001 0.488500 28.853752 15.588044 0.322848 11.396408 0.951563 0.307452 3
1441147278.612661 33.410052 -111.893888 416883.798594 3697103.890317 357.500000 1.890000 0.030000 0.491345 28.853752 15.729180 0.322848 11.278593 0.953453 0.301540 3
1441147278.712641 33.410052 -111.893888 416883.798594 3697103.890317 357.500000 1.890000 0.000000 0.492549 28.853752 15.799749 0.322848 11.219687 0.953973 0.299893 3
1441147279.096285 33.410056 -111.893887 416883.829823 3697104.278132 357.530000 1.930000 0.125110 0.482636 28.853752 15.940886 0.322848 11.101872 0.955782 0.294074 3
1441147279.096570 33.410059 -111.893887 416883.851754 3697104.666026 357.570000 1.970000 0.125110 0.482636 28.853752 16.223160 0.322848 10.866243 0.958096 0.286447 3
1441147279.197002 33.410063 -111.893887 416883.873780 3697105.065009 357.620000 1.960000 0.109224 0.482165 28.853752 16.364298 0.322848 10.748429 0.960339 0.278834 3
1441147279.296921 33.410063 -111.893887 416883.873780 3697105.065009 357.620000 1.960000 0.080070 0.480332 28.853752 16.434866 0.322848 10.689522 0.960965 0.276670 3
1441147279.397018 33.410063 -111.893887 416883.873780 3697105.065009 357.620000 1.960000 0.039953 0.481065 28.853752 16.505436 0.322848 10.630613 0.961643 0.274305 3
1441147279.497003 33.410066 -111.893887 416883.886318 3697105.441896 357.660000 1.860000 0.050010 0.480960 28.853752 16.646572 0.322848 10.512799 0.964361 0.264589 3
1441147279.596972 33.410070 -111.893887 416883.908153 3697105.818704 357.700000 1.870000 0.070017 0.480332 28.853752 16.787714 0.322848 10.394982 0.967497 0.252883 3
1441147279.696890 33.410070 -111.893887 416883.908153 3697105.818704 357.700000 1.870000 0.010008 0.478639 28.853752 16.858284 0.322848 10.336074 0.968674 0.248337 3
1441147279.796966 33.410073 -111.893886 416883.929989 3697106.195511 357.720000 1.850000 0.069947 0.477190 28.853752 16.999424 0.322848 10.218256 0.972004 0.234964 3
1441147279.896996 33.410073 -111.893886 416883.929989 3697106.195511 357.720000 1.850000 0.029994 0.477103 28.853752 17.069996 0.322848 10.159348 0.973230 0.229832 3
1441147279.997129 33.410076 -111.893886 416883.979625 3697106.560992 357.760000 1.800000 0.139879 0.471780 28.853752 17.211136 0.322848 10.041531 0.976764 0.214317 3
1441147280.097098 33.410076 -111.893886 416883.979625 3697106.560992 357.760000 1.800000 0.060003 0.468464 28.853752 17.352276 0.322848 9.923714 0.979345 0.202195 3
1441147280.196976 33.410079 -111.893885 416884.029071 3697106.904298 357.790000 1.720000 0.100126 0.466963 28.853752 17.422848 0.322848 9.864805 0.981473 0.191601 3
1441147280.297081 33.410079 -111.893885 416884.029071 3697106.904298 357.790000 1.720000 0.029968 0.462512 28.853752 17.563988 0.322848 9.746987 0.983999 0.178175 3
1441147280.396973 33.410082 -111.893885 416884.106317 3697107.236277 357.820000 1.680000 0.470497 0.461133 28.853752 17.634558 0.322848 9.688079 0.985803 0.167903 3
1441147280.497105 33.410082 -111.893885 416884.106317 3697107.236277 357.820000 1.680000 -0.259662 0.464118 28.853752 17.775698 0.322848 9.570262 0.987919 0.154971 3
1441147280.596965 33.410085 -111.893884 416884.183373 3697107.546082 357.850000 1.610000 -0.100137 0.466666 28.853752 17.846268 0.322848 9.511353 0.989616 0.143739 3
1441147280.697001 33.410085 -111.893884 416884.183373 3697107.546082 357.850000 1.610000 -0.109964 0.468254 28.853752 17.987408 0.322848 9.393536 0.991637 0.129057 3
1441147280.796967 33.410085 -111.893884 416884.183373 3697107.546082 357.850000 1.610000 0.070022 0.473316 28.853752 18.057980 0.322848 9.334628 0.992676 0.120808 3
1441147280.897081 33.410088 -111.893883 416884.260238 3697107.833712 357.870000 1.540000 -0.109878 0.478342 28.853752 18.199120 0.322848 9.216810 0.995071 0.099161 3
1441147280.997100 33.410088 -111.893883 416884.260238 3697107.833712 357.870000 1.540000 0.279940 0.481449 28.853752 18.269690 0.322848 9.157902 0.995945 0.089960 3
1441147281.097093 33.410090 -111.893882 416884.346402 3697108.121262 357.890000 1.540000 -0.400043 0.482688 28.853752 18.410830 0.322848 9.040085 0.997833 0.065790 3
1441147281.197092 33.410090 -111.893882 416884.346402 3697108.121262 357.890000 1.540000 -0.109998 0.484503 28.853752 18.481400 0.322848 8.981176 0.998472 0.055258 3
1441147281.297058 33.410093 -111.893881 416884.441674 3697108.386558 357.910000 1.500000 -0.250086 0.484887 28.853752 18.622541 0.322848 8.863358 0.999580 0.028988 3
1441147281.397115 33.410095 -111.893880 416884.536850 3697108.640767 357.920000 1.440000 -0.059967 0.484381 28.853752 18.693111 0.322848 8.804450 0.999911 0.013333 3
1441147281.496969 33.410095 -111.893880 416884.536850 3697108.640767 357.920000 1.440000 -0.070100 0.481397 28.853752 18.834251 0.322848 8.686633 0.999958 -0.009205 3
1441147281.597089 33.410095 -111.893880 416884.536850 3697108.640767 357.920000 1.440000 -0.009988 0.479215 28.853752 18.904823 0.322848 8.627725 0.999796 -0.020196 3
1441147281.697109 33.410097 -111.893879 416884.660018 3697108.905823 357.920000 1.460000 0.049998 0.476004 28.853752 19.045963 0.322848 8.509908 0.998838 -0.048190 3
1441147281.797089 33.410097 -111.893879 416884.660018 3697108.905823 357.920000 1.460000 0.020000 0.476527 28.853752 19.116533 0.322848 8.450998 0.998215 -0.059721 3
1441147281.897056 33.410100 -111.893877 416884.801878 3697109.181807 357.940000 1.490000 0.020007 0.476039 28.853752 19.257675 0.322848 8.333181 0.996062 -0.088656 3
1441147281.996952 33.410102 -111.893876 416884.934344 3697109.446783 357.950000 1.490000 0.000000 0.470628 28.853752 19.398815 0.322848 8.215364 0.993084 -0.117409 3
1441147282.096985 33.410102 -111.893876 416884.934344 3697109.446783 357.950000 1.490000 -0.009997 0.469930 28.853752 19.469385 0.322848 8.156455 0.991702 -0.128555 3
1441147282.197116 33.410105 -111.893874 416885.076109 3697109.711679 357.980000 1.480000 0.000000 0.468429 28.853752 19.610525 0.322848 8.038638 0.987540 -0.157369 3
1441147282.296985 33.410105 -111.893874 416885.076109 3697109.711679 357.980000 1.480000 0.730953 0.468691 28.853752 19.681095 0.322848 7.979730 0.985677 -0.168643 3
1441147282.397114 33.410107 -111.893873 416885.199276 3697109.976735 357.980000 1.450000 -0.799141 0.467190 28.853752 19.822235 0.322848 7.861913 0.980487 -0.196582 3
1441147282.497080 33.410107 -111.893873 416885.199276 3697109.976735 357.980000 1.450000 -0.080012 0.466649 28.853752 19.892807 0.322848 7.803004 0.978390 -0.206766 3
1441147282.597093 33.410109 -111.893872 416885.313050 3697110.230784 357.990000 1.410000 -0.119983 0.467329 28.853752 20.033947 0.322848 7.685187 0.972543 -0.232724 3
1441147282.697088 33.410109 -111.893872 416885.313050 3697110.230784 357.990000 1.410000 -0.020001 0.469319 28.853752 20.104517 0.322848 7.626278 0.970177 -0.242396 3
1441147282.797092 33.410112 -111.893871 416885.417620 3697110.496000 358.000000 1.380000 0.019999 0.470872 28.853752 20.245659 0.322848 7.508461 0.963853 -0.266436 3
1441147282.896970 33.410112 -111.893871 416885.417620 3697110.496000 358.000000 1.380000 0.040047 0.470611 28.853752 20.316227 0.322848 7.449553 0.961452 -0.274974 3
1441147282.997070 33.410114 -111.893870 416885.503403 3697110.739201 358.020000 1.310000 0.029971 0.467033 28.853752 20.457369 0.322848 7.331735 0.955141 -0.296151 3
1441147283.097116 33.410114 -111.893870 416885.503403 3697110.739201 358.020000 1.310000 0.029987 0.467190 28.853752 20.527939 0.322848 7.272827 0.952843 -0.303464 3
1441147283.197063 33.410116 -111.893869 416885.579982 3697110.993569 358.040000 1.300000 0.090043 0.470070 28.853752 20.669079 0.322848 7.155010 0.946566 -0.322509 3
1441147283.296984 33.410116 -111.893869 416885.579982 3697110.993569 358.040000 1.300000 0.070055 0.470331 28.853752 20.739651 0.322848 7.096101 0.944268 -0.329178 3
1441147283.397092 33.410119 -111.893869 416885.619463 3697111.259344 358.050000 1.260000 0.059936 0.466823 28.853752 20.880791 0.322848 6.978283 0.937851 -0.347038 3
1441147283.497071 33.410119 -111.893869 416885.619463 3697111.259344 358.050000 1.260000 0.110019 0.465933 28.853752 20.951361 0.322848 6.919375 0.935671 -0.352873 3
1441147283.597096 33.410121 -111.893868 416885.649359 3697111.491938 358.050000 1.130000 0.049989 0.464327 28.853752 21.092501 0.322848 6.801558 0.929066 -0.369914 3
1441147283.696905 33.410121 -111.893868 416885.649359 3697111.491938 358.050000 1.130000 0.070110 0.460802 28.853752 21.163071 0.322848 6.742649 0.926766 -0.375640 3
1441147283.797031 33.410123 -111.893868 416885.670147 3697111.746785 358.050000 1.210000 -0.039953 0.461116 28.853752 21.304213 0.322848 6.624832 0.920044 -0.391815 3
1441147284.180364 33.410123 -111.893868 416885.670147 3697111.746785 358.050000 1.210000 0.057403 0.459650 28.853752 21.445353 0.322848 6.507015 0.915680 -0.401909 3
1441147284.180620 33.410128 -111.893868 416885.730224 3697112.245233 358.090000 1.200000 0.057403 0.459650 28.853752 21.727634 0.322848 6.271380 0.903018 -0.429603 3
1441147284.281050 33.410128 -111.893868 416885.730224 3697112.245233 358.090000 1.200000 0.158779 0.459563 28.853752 21.798204 0.322848 6.212472 0.901168 -0.433470 3
1441147284.381095 33.410130 -111.893867 416885.760216 3697112.488914 358.100000 1.210000 0.000000 0.462477 28.853752 21.939344 0.322848 6.094655 0.894959 -0.446149 3
1441147284.481087 33.410130 -111.893867 416885.760216 3697112.488914 358.100000 1.210000 0.010001 0.463577 28.853752 22.080486 0.322848 5.976838 0.891405 -0.453207 3
1441147284.581085 33.410132 -111.893867 416885.780908 3697112.732674 358.120000 1.200000 -0.010000 0.463525 28.853752 22.151054 0.322848 5.917929 0.887230 -0.461327 3
1441147284.681187 33.410132 -111.893867 416885.780908 3697112.732674 358.120000 1.200000 0.019985 0.465898 28.853752 22.292196 0.322848 5.800112 0.883982 -0.467520 3
1441147284.780635 33.410132 -111.893867 416885.780908 3697112.732674 358.120000 1.200000 0.019985 0.465898 28.853752 22.292196 0.322848 5.800112 0.883982 -0.467520 3
1441147284.881166 33.410134 -111.893867 416885.782718 3697112.943332 358.140000 1.100000 0.215022 0.468202 28.853752 22.503906 0.322848 5.623386 0.876950 -0.480582 3
1441147284.981132 33.410134 -111.893867 416885.782718 3697112.943332 358.140000 1.100000 -0.110036 0.467853 28.853752 22.574478 0.322848 5.564478 0.875666 -0.482917 3
1441147285.081188 33.410136 -111.893867 416885.765835 3697113.143063 358.160000 1.080000 -0.039978 0.468516 28.853752 22.715618 0.322848 5.446661 0.870648 -0.491906 3
1441147285.181168 33.410136 -111.893867 416885.765835 3697113.143063 358.160000 1.080000 -0.090016 0.466073 28.853752 22.786188 0.322848 5.387752 0.869485 -0.493960 3
1441147285.281169 33.410138 -111.893868 416885.739654 3697113.342874 358.190000 1.050000 0.069999 0.464816 28.853752 22.927328 0.322848 5.269934 0.864990 -0.501789 3
1441147285.381169 33.410139 -111.893868 416885.704079 3697113.531677 358.230000 1.070000 0.150001 0.464292 28.853752 22.997898 0.322848 5.211026 0.864207 -0.503137 3
1441147285.481168 33.410139 -111.893868 416885.704079 3697113.531677 358.230000 1.070000 0.410001 0.459667 28.853752 23.139040 0.322848 5.093209 0.860422 -0.509582 3
1441147285.581242 33.410139 -111.893868 416885.704079 3697113.531677 358.230000 1.070000 -0.300020 0.458865 28.853752 23.209610 0.322848 5.034300 0.859854 -0.510540 3
1441147285.681170 33.410141 -111.893869 416885.640989 3697113.765069 358.240000 1.130000 -0.389975 0.451290 28.853752 23.350750 0.322848 4.916483 0.856695 -0.515822 3
1441147285.781184 33.410141 -111.893869 416885.640989 3697113.765069 358.240000 1.130000 -0.129983 0.450312 28.853752 23.421322 0.322848 4.857574 0.856786 -0.515672 3
1441147285.881151 33.410143 -111.893870 416885.568315 3697113.965279 358.230000 1.120000 -0.100029 0.450400 28.853752 23.562462 0.322848 4.739757 0.854738 -0.519059 3
1441147285.981153 33.410143 -111.893870 416885.568315 3697113.965279 358.230000 1.120000 0.000000 0.449684 28.853752 23.633032 0.322848 4.680849 0.855027 -0.518584 3
1441147286.081170 33.410145 -111.893871 416885.486343 3697114.165569 358.230000 1.110000 0.120002 0.446385 28.853752 23.774172 0.322848 4.563031 0.853422 -0.521220 3
1441147286.181171 33.410145 -111.893871 416885.486343 3697114.165569 358.230000 1.110000 0.019996 0.445094 28.853752 23.844742 0.322848 4.504123 0.853927 -0.520393 3
1441147286.281262 33.410147 -111.893872 416885.385582 3697114.343844 358.230000 1.070000 0.099990 0.444413 28.853752 23.985882 0.322848 4.386306 0.852576 -0.522603 3
1441147286.381171 33.410147 -111.893872 416885.385582 3697114.343844 358.230000 1.070000 0.090008 0.444535 28.853752 24.056454 0.322848 4.327397 0.853128 -0.521701 3
1441147286.481179 33.410148 -111.893873 416885.275714 3697114.544374 358.230000 1.160000 -0.129990 0.441568 28.853752 24.127024 0.322848 4.268488 0.851080 -0.525036 3
1441147286.581164 33.410148 -111.893873 416885.275714 3697114.544374 358.230000 1.160000 -0.130020 0.436053 28.853752 24.268164 0.322848 4.150671 0.852132 -0.523326 3
1441147286.681185 33.410150 -111.893874 416885.156642 3697114.756071 358.210000 1.200000 0.019995 0.435617 28.853752 24.409306 0.322848 4.032854 0.850687 -0.525673 3
1441147286.781323 33.410150 -111.893874 416885.156642 3697114.756071 358.210000 1.200000 0.029989 0.434587 28.853752 24.479876 0.322848 3.973945 0.851492 -0.524368 3
1441147286.881135 33.410152 -111.893875 416885.046965 3697114.978775 358.180000 1.210000 0.050044 0.431236 28.853752 24.621016 0.322848 3.856128 0.850377 -0.526174 3
1441147286.981171 33.410152 -111.893875 416885.046965 3697114.978775 358.180000 1.210000 -0.009996 0.429822 28.853752 24.691586 0.322848 3.797220 0.851123 -0.524967 3
1441147287.081152 33.410154 -111.893877 416884.937096 3697115.179304 358.170000 1.180000 -0.010002 0.426960 28.853752 24.832726 0.322848 3.679402 0.850238 -0.526398 3
1441147287.181259 33.410156 -111.893878 416884.799523 3697115.402248 358.150000 1.250000 0.000000 0.421776 28.853752 24.973867 0.322848 3.561585 0.849535 -0.527533 3
1441147287.281168 33.410156 -111.893878 416884.799523 3697115.402248 358.150000 1.250000 0.020001 0.420293 28.853752 25.044437 0.322848 3.502677 0.850352 -0.526214 3
1441147287.381114 33.410158 -111.893879 416884.671343 3697115.636199 358.150000 1.310000 -0.040021 0.415999 28.853752 25.185577 0.322848 3.384859 0.850085 -0.526645 3
1441147287.481269 33.410158 -111.893879 416884.671343 3697115.636199 358.150000 1.310000 0.029980 0.415039 28.853752 25.256149 0.322848 3.325951 0.850938 -0.525266 3
1441147287.581154 33.410160 -111.893881 416884.543068 3697115.859063 358.140000 1.320000 -0.040011 0.410135 28.853752 25.397289 0.322848 3.208134 0.850674 -0.525693 3
1441147287.681168 33.410160 -111.893881 416884.543068 3697115.859063 358.140000 1.320000 0.000000 0.408512 28.853752 25.467859 0.322848 3.149225 0.851663 -0.524090 3
1441147287.781149 33.410162 -111.893882 416884.405685 3697116.104182 358.130000 1.430000 -0.050010 0.403660 28.853752 25.608999 0.322848 3.031408 0.851013 -0.525144 3
1441147287.881151 33.410162 -111.893882 416884.405685 3697116.104182 358.130000 1.430000 -0.069998 0.401234 28.853752 25.679569 0.322848 2.972499 0.851931 -0.523655 3
1441147287.981168 33.410162 -111.893882 416884.405685 3697116.104182 358.130000 1.430000 -0.089986 0.395945 28.853752 25.820711 0.322848 2.854682 0.853418 -0.521227 3
1441147288.081166 33.410165 -111.893884 416884.287280 3697116.393489 358.130000 1.520000 -0.060001 0.393467 28.853752 25.891281 0.322848 2.795773 0.852170 -0.523266 3
1441147288.181185 33.410168 -111.893885 416884.140980 3697116.683037 358.110000 1.630000 -0.029994 0.390116 28.853752 26.032421 0.322848 2.677956 0.850743 -0.525582 3
1441147288.281165 33.410168 -111.893885 416884.140980 3697116.683037 358.110000 1.630000 0.010002 0.388563 28.853752 26.102991 0.322848 2.619048 0.851243 -0.524771 3
1441147288.381169 33.410170 -111.893887 416884.004073 3697116.983591 358.090000 1.660000 0.000000 0.384653 28.853752 26.244133 0.322848 2.501230 0.849523 -0.527551 3
1441147288.481187 33.410170 -111.893887 416884.004073 3697116.983591 358.090000 1.660000 0.070000 0.382105 28.853752 26.314703 0.322848 2.442322 0.849731 -0.527216 3
1441147288.581145 33.410173 -111.893888 416883.876465 3697117.284066 358.090000 1.670000 -0.010002 0.378352 28.853752 26.455843 0.322848 2.324505 0.847211 -0.531257 3
1441147288.681169 33.410173 -111.893888 416883.876465 3697117.284066 358.090000 1.670000 0.029993 0.379312 28.853752 26.526413 0.322848 2.265596 0.846893 -0.531763 3
1441147288.781167 33.410173 -111.893888 416883.876465 3697117.284066 358.090000 1.670000 0.330003 0.379941 28.853752 26.667553 0.322848 2.147779 0.845614 -0.533795 3
1441147288.881111 33.410176 -111.893889 416883.767740 3697117.617643 358.120000 1.740000 -0.110062 0.383239 28.853752 26.808695 0.322848 2.029962 0.840480 -0.541842 3
1441147289.256347 33.410176 -111.893889 416883.767740 3697117.617643 358.120000 1.740000 0.010663 0.400658 28.853752 26.879265 0.322848 1.971053 0.838861 -0.544346 3
1441147289.256680 33.410182 -111.893891 416883.587960 3697118.339914 358.110000 1.800000 0.010663 0.400658 28.853752 27.166975 0.322848 1.730887 0.824879 -0.565309 3
1441147289.357165 33.410182 -111.893891 416883.587960 3697118.339914 358.110000 1.800000 0.039633 0.406714 28.853752 27.308115 0.322848 1.613070 0.819790 -0.572664 3
1441147289.457197 33.410186 -111.893892 416883.535312 3697118.706273 358.090000 1.790000 0.079980 0.410170 28.853752 27.378685 0.322848 1.554162 0.814489 -0.580179 3
1441147289.557139 33.410186 -111.893892 416883.535312 3697118.706273 358.090000 1.790000 0.070025 0.419647 28.853752 27.519825 0.322848 1.436344 0.808897 -0.587950 3
1441147289.657134 33.410189 -111.893892 416883.491962 3697119.072553 358.070000 1.750000 0.010001 0.421672 28.853752 27.590397 0.322848 1.377436 0.803177 -0.595740 3
1441147289.757115 33.410189 -111.893892 416883.491962 3697119.072553 358.070000 1.750000 -0.009999 0.422597 28.853752 27.660967 0.322848 1.318527 0.800155 -0.599794 3
1441147289.857087 33.410192 -111.893893 416883.476223 3697119.405331 358.050000 1.630000 -0.020006 0.427990 28.853752 27.802107 0.322848 1.200710 0.791141 -0.611633 3
1441147289.957101 33.410192 -111.893893 416883.476223 3697119.405331 358.050000 1.630000 -0.019998 0.430485 28.853752 27.943247 0.322848 1.082893 0.784215 -0.620489 3
1441147290.057126 33.410195 -111.893893 416883.478985 3697119.726862 358.050000 1.600000 -0.059998 0.433435 28.853752 28.013817 0.322848 1.023984 0.778329 -0.627857 3
1441147290.157103 33.410195 -111.893893 416883.478985 3697119.726862 358.050000 1.600000 -0.120002 0.434971 28.853752 28.154959 0.322848 0.906167 0.771957 -0.635674 3
1441147290.256956 33.410198 -111.893893 416883.490951 3697120.037226 358.040000 1.530000 0.000000 0.439561 28.853752 28.296099 0.322848 0.788350 0.763316 -0.646026 3
1441147290.357110 33.410198 -111.893893 416883.490951 3697120.037226 358.040000 1.530000 -0.049925 0.441115 28.853752 28.366669 0.322848 0.729441 0.760582 -0.649242 3
1441147290.456966 33.410200 -111.893892 416883.530622 3697120.325176 358.050000 1.500000 -0.040057 0.441656 28.853752 28.507811 0.322848 0.611624 0.752835 -0.658209 3
1441147290.557096 33.410200 -111.893892 416883.530622 3697120.325176 358.050000 1.500000 -0.029963 0.443471 28.853752 28.578381 0.322848 0.552715 0.750765 -0.660569 3
1441147290.657101 33.410203 -111.893892 416883.551505 3697120.591111 358.050000 1.320000 -0.059996 0.445443 28.853752 28.853752 0.322848 0.322848 0.744797 -0.667290 3
