1440977803.574860 33.409995 -111.894012 416872.176380 3697097.614517 357.430000 0.020000 0.000000 0.492549 0.000000 0.000000 0.000000 0.000000 0.000000 0.000000 7
1440977803.674878 33.409995 -111.894012 416872.157592 3697097.592503 357.400000 0.010000 0.000000 0.492741 0.000000 0.000000 0.000000 0.000000 0.000000 0.000000 7
1440977803.774979 33.409995 -111.894012 416872.157592 3697097.592503 357.400000 0.010000 0.000000 0.492916 0.000000 0.000000 0.000000 0.000000 0.000000 0.000000 7
1440977803.874984 33.409994 -111.894013 416872.129411 3697097.559481 357.360000 0.040000 0.000000 0.493108 0.000000 0.000000 0.000000 0.000000 0.000000 0.000000 7
1440977803.974986 33.409994 -111.894013 416872.129411 3697097.559481 357.360000 0.040000 0.000000 0.493056 0.000000 0.000000 0.000000 0.000000 0.000000 0.000000 7
1440977804.075049 33.409994 -111.894013 416872.110623 3697097.537466 357.350000 0.040000 0.000000 0.493195 0.000000 0.000000 0.000000 0.000000 0.000000 0.000000 7
1440977804.174984 33.409994 -111.894013 416872.110623 3697097.537466 357.350000 0.040000 0.000000 0.493056 0.000000 0.000000 0.000000 0.000000 0.000000 0.000000 7
1440977804.274989 33.409994 -111.894013 416872.110623 3697097.537466 357.350000 0.040000 0.000000 0.493265 0.000000 0.000000 0.000000 0.000000 0.000000 0.000000 7
1440977804.374980 33.409994 -111.894013 416872.101515 3697097.559720 357.330000 0.050000 0.000000 0.493160 0.000000 0.000000 0.000000 0.000000 0.000000 0.000000 7
1440977804.475001 33.409994 -111.894013 416872.101610 3697097.570808 357.320000 0.100000 0.000000 0.493282 0.000000 0.000000 0.000000 0.000000 0.000000 0.000000 7
1440977804.574940 33.409994 -111.894013 416872.101610 3697097.570808 357.320000 0.100000 0.000000 0.494609 0.000000 0.000000 0.000000 0.000000 0.000000 0.000000 7
1440977804.674985 33.409994 -111.894013 416872.111004 3697097.581815 357.310000 0.110000 0.000000 0.495586 0.000000 0.000000 0.000000 0.000000 0.000000 0.000000 7
1440977804.774964 33.409994 -111.894013 416872.111004 3697097.581815 357.310000 0.110000 0.000000 0.494766 0.000000 0.000000 0.000000 0.000000 0.000000 0.000000 7
1440977804.874907 33.409994 -111.894013 416872.120207 3697097.570648 357.320000 0.050000 0.000000 0.496319 0.000000 0.000000 0.000000 0.000000 0.000000 0.000000 7
1440977804.974982 33.409994 -111.894013 416872.120207 3697097.570648 357.320000 0.050000 0.000000 0.494487 0.000000 0.000000 0.000000 0.000000 0.000000 0.000000 7
1440977805.075092 33.409994 -111.894013 416872.110813 3697097.559640 357.310000 0.030000 0.000000 0.495918 0.000000 0.000000 0.000000 0.000000 0.000000 0.000000 7
1440977805.175057 33.409994 -111.894013 416872.110813 3697097.559640 357.310000 0.030000 0.000000 0.494871 0.000000 0.000000 0.000000 0.000000 0.000000 0.000000 7
1440977805.275070 33.409994 -111.894013 416872.082918 3697097.559880 357.320000 0.060000 0.000000 0.496599 0.000000 0.000000 0.000000 0.000000 0.000000 0.000000 7
1440977805.375055 33.409994 -111.894013 416872.082918 3697097.559880 357.320000 0.060000 0.000000 0.497122 0.000000 0.000000 0.000000 0.000000 0.000000 0.000000 7
1440977805.475053 33.409994 -111.894013 416872.073524 3697097.548873 357.310000 0.030000 0.000000 0.496843 0.000000 0.000000 0.000000 0.000000 0.000000 0.000000 7
1440977805.575076 33.409994 -111.894013 416872.073524 3697097.548873 357.310000 0.030000 0.000000 0.497925 0.000000 0.000000 0.000000 0.000000 0.000000 0.000000 7
1440977805.674997 33.409995 -111.894013 416872.046009 3697097.593461 357.300000 0.130000 0.000000 0.498047 0.000000 0.000000 0.000000 0.000000 0.000000 0.000000 7
1440977805.774926 33.409995 -111.894013 416872.046009 3697097.593461 357.300000 0.130000 0.000000 0.498466 0.000000 0.000000 0.000000 0.000000 0.000000 0.000000 7
1440977805.874943 33.409995 -111.894014 416872.018494 3697097.638050 357.280000 0.150000 0.000000 0.501485 0.000000 0.000000 0.000000 0.000000 0.000000 0.000000 7
1440977805.974929 33.409995 -111.894014 416872.018494 3697097.638050 357.280000 0.150000 0.000000 0.502201 0.000000 0.000000 0.000000 0.000000 0.000000 0.000000 7
1440977806.074915 33.409995 -111.894014 416872.018494 3697097.638050 357.280000 0.150000 0.000000 0.503929 0.000000 0.000000 0.000000 0.000000 0.000000 0.000000 7
1440977806.174981 33.409995 -111.894014 416871.999992 3697097.649297 357.250000 0.050000 0.000000 0.513738 0.000000 0.000000 0.000000 0.000000 0.000000 0.000000 7
1440977806.274987 33.409995 -111.894014 416871.999992 3697097.649297 357.250000 0.050000 0.000000 0.518136 0.000000 0.000000 0.000000 0.000000 0.000000 0.000000 7
1440977806.374968 33.409995 -111.894014 416871.990980 3697097.682639 357.210000 0.030000 0.000000 0.529044 0.000000 0.000000 0.000000 0.000000 0.000000 0.000000 7
1440977806.474984 33.409995 -111.894014 416871.981681 3697097.682719 357.190000 0.060000 0.000000 0.534996 0.000000 0.000000 0.000000 0.000000 0.000000 0.000000 7
1440977806.574876 33.409995 -111.894014 416871.981681 3697097.682719 357.190000 0.060000 0.000000 0.542937 0.000000 0.000000 0.000000 0.000000 0.000000 0.000000 7
1440977806.674966 33.409995 -111.894014 416871.972478 3697097.693886 357.180000 0.050000 0.000000 0.539865 0.000000 0.000000 0.000000 0.000000 0.000000 0.000000 7
1440977806.774983 33.409995 -111.894014 416871.972478 3697097.693886 357.180000 0.050000 0.000000 0.532797 0.000000 0.000000 0.000000 0.000000 0.000000 0.000000 7
1440977806.874990 33.409995 -111.894014 416871.972478 3697097.693886 357.180000 0.050000 0.000000 0.529760 0.000000 0.000000 0.000000 0.000000 0.000000 0.000000 7
1440977806.975003 33.409996 -111.894014 416871.963274 3697097.705053 357.170000 0.040000 0.000000 0.525903 0.000000 0.000000 0.000000 0.000000 0.000000 0.000000 7
1440977807.075076 33.409996 -111.894014 416871.963274 3697097.705053 357.170000 0.040000 0.000000 0.526077 0.000000 0.000000 0.000000 0.000000 0.000000 0.000000 7
1440977807.174871 33.409996 -111.894014 416871.954357 3697097.749482 357.170000 0.050000 0.000000 0.524087 0.000000 0.000000 0.000000 0.000000 0.000000 0.000000 7
1440977807.274983 33.409997 -111.894014 416871.955119 3697097.838180 357.170000 0.200000 0.000000 0.520998 0.000000 0.000000 0.000000 0.000000 0.000000 0.000000 7
1440977807.375033 33.409997 -111.894014 416871.955119 3697097.838180 357.170000 0.200000 0.000000 0.517438 0.000000 0.000000 0.000000 0.000000 0.000000 0.000000 7
1440977807.475492 33.409998 -111.894015 416871.946773 3697097.949133 357.160000 0.290000 2.439593 0.328645 0.000000 0.000000 0.000000 0.000000 0.000000 0.000000 7
1440977807.574988 33.409998 -111.894015 416871.946773 3697097.949133 357.160000 0.290000 0.130018 0.332747 0.000000 0.000000 0.000000 0.000000 0.000000 0.000000 7
1440977807.674990 33.409999 -111.894015 416871.947726 3697098.060006 357.140000 0.370000 0.390033 0.341648 0.000000 0.000000 0.000000 0.000000 0.000000 0.000000 7
1440977807.775008 33.409999 -111.894015 416871.947726 3697098.060006 357.140000 0.370000 0.259980 0.342224 0.000000 0.000000 0.000000 0.000000 0.000000 0.000000 7
1440977807.874990 33.410000 -111.894015 416871.930653 3697098.237562 357.130000 0.560000 0.869959 0.337302 0.000000 0.000000 0.000000 0.000000 0.000000 0.000000 7
1440977807.974865 33.410000 -111.894015 416871.930653 3697098.237562 357.130000 0.560000 0.490445 0.334597 0.000000 0.000000 0.000000 0.000000 0.000000 0.000000 7
1440977808.075026 33.410002 -111.894015 416871.913294 3697098.381857 357.120000 0.530000 1.158992 0.331857 0.000000 0.000000 0.000000 0.000000 0.000000 0.000000 7
1440977808.174892 33.410002 -111.894015 416871.913294 3697098.381857 357.120000 0.530000 0.470414 0.330827 0.000000 0.000000 0.000000 0.000000 0.000000 0.000000 7
1440977808.274986 33.410003 -111.894015 416871.886542 3697098.515144 357.130000 0.480000 0.739368 0.327267 0.000000 0.000000 0.000000 0.000000 0.000000 0.000000 7
1440977808.374845 33.410003 -111.894015 416871.886542 3697098.515144 357.130000 0.480000 0.230216 0.327005 0.000000 0.000000 0.000000 0.000000 0.000000 0.000000 7
1440977808.474966 33.410004 -111.894016 416871.859599 3697098.626256 357.140000 0.460000 0.149901 0.324160 0.000000 0.000000 0.000000 0.000000 0.000000 0.000000 7
1440977808.574919 33.410004 -111.894016 416871.859599 3697098.626256 357.140000 0.460000 -0.020003 0.323584 0.000000 0.000000 0.000000 0.000000 0.000000 0.000000 7
1440977808.674987 33.410005 -111.894016 416871.813868 3697098.715354 357.140000 0.390000 -0.229869 0.323898 0.000000 0.000000 0.000000 0.000000 0.000000 0.000000 7
1440977808.774973 33.410005 -111.894016 416871.813868 3697098.715354 357.140000 0.390000 -0.230077 0.328401 0.000000 0.000000 0.000000 0.000000 0.000000 0.000000 7
1440977808.874989 33.410005 -111.894017 416871.777054 3697098.760022 357.140000 0.290000 -0.059987 0.329972 0.000000 0.000000 0.000000 0.000000 0.000000 0.000000 7
1440977808.974986 33.410005 -111.894017 416871.777054 3697098.760022 357.140000 0.290000 -0.130006 0.331735 0.000000 0.000000 0.000000 0.000000 0.000000 0.000000 7
1440977809.075018 33.410005 -111.894017 416871.740146 3697098.793604 357.130000 0.160000 0.010001 0.333079 0.000000 0.000000 0.000000 0.000000 0.000000 0.000000 7
1440977809.174987 33.410005 -111.894017 416871.740146 3697098.793604 357.130000 0.160000 0.079995 0.336307 0.000000 0.000000 0.000000 0.000000 0.000000 0.000000 7
1440977809.274986 33.410006 -111.894017 416871.712631 3697098.838193 357.140000 0.080000 -0.020000 0.336465 0.000000 0.000000 0.000000 0.000000 0.000000 0.000000 7
1440977809.374985 33.410006 -111.894017 416871.712631 3697098.838193 357.140000 0.080000 0.030000 0.334981 0.000000 0.000000 0.000000 0.000000 0.000000 0.000000 7
1440977809.475007 33.410006 -111.894017 416871.703428 3697098.849360 357.180000 0.030000 0.090000 0.331037 0.000000 0.000000 0.000000 0.000000 0.000000 0.000000 7
1440977809.574989 33.410006 -111.894017 416871.703428 3697098.849360 357.180000 0.030000 -0.229991 0.327179 0.000000 0.000000 0.000000 0.000000 0.000000 0.000000 7
1440977809.674861 33.410006 -111.894017 416871.703809 3697098.893709 357.210000 0.020000 -0.090084 0.328157 0.000000 0.000000 0.000000 0.000000 0.000000 0.000000 7
1440977809.774888 33.410006 -111.894017 416871.703809 3697098.893709 357.210000 0.020000 -0.009997 0.331072 0.000000 0.000000 0.000000 0.000000 0.000000 0.000000 7
1440977809.875006 33.410006 -111.894017 416871.703809 3697098.893709 357.210000 0.020000 0.019988 0.330426 0.000000 0.000000 0.000000 0.000000 0.000000 0.000000 7
1440977809.974984 33.410006 -111.894017 416871.722216 3697098.871375 357.230000 0.080000 0.080002 0.326045 0.000000 0.000000 0.000000 0.000000 0.000000 0.000000 7
1440977810.075019 33.410006 -111.894017 416871.722216 3697098.871375 357.230000 0.080000 0.090000 0.324265 0.000000 0.000000 0.000000 0.000000 0.000000 0.000000 7
1440977810.174983 33.410006 -111.894017 416871.759219 3697098.848880 357.250000 0.130000 -0.030000 0.321106 0.000000 0.000000 0.000000 0.000000 0.000000 0.000000 7
1440977810.274920 33.410005 -111.894017 416871.777245 3697098.782197 357.280000 0.240000 -0.020012 0.319709 0.000000 0.000000 0.000000 0.000000 0.000000 0.000000 7
1440977810.374983 33.410005 -111.894017 416871.777245 3697098.782197 357.280000 0.240000 0.079955 0.320198 0.000000 0.000000 0.000000 0.000000 0.000000 0.000000 7
