1440979809.013378 33.409945 -111.893962 416876.824441 3697092.019445 361.960000 0.040000 0.000000 -0.230907 0.000000 0.000000 0.000000 0.000000 0.000000 0.000000 7
1440979809.113317 33.409945 -111.893962 416876.815143 3697092.019525 361.990000 0.100000 0.000000 -0.230820 0.000000 0.000000 0.000000 0.000000 0.000000 0.000000 7
1440979809.213345 33.409945 -111.893962 416876.815143 3697092.019525 361.990000 0.100000 0.000000 -0.230767 0.000000 0.000000 0.000000 0.000000 0.000000 0.000000 7
1440979809.313249 33.409945 -111.893962 416876.815143 3697092.019525 361.990000 0.100000 0.000000 -0.230733 0.000000 0.000000 0.000000 0.000000 0.000000 0.000000 7
1440979809.413227 33.409945 -111.893962 416876.805939 3697092.030692 361.990000 0.110000 0.000000 -0.230488 0.000000 0.000000 0.000000 0.000000 0.000000 0.000000 7
1440979809.513281 33.409945 -111.893962 416876.797022 3697092.075121 362.010000 0.090000 0.000000 -0.230104 0.000000 0.000000 0.000000 0.000000 0.000000 0.000000 7
1440979809.613211 33.409945 -111.893962 416876.797022 3697092.075121 362.010000 0.090000 0.000000 -0.230017 0.000000 0.000000 0.000000 0.000000 0.000000 0.000000 7
1440979809.712914 33.409945 -111.893962 416876.797022 3697092.075121 362.010000 0.090000 0.000000 -0.230017 0.000000 0.000000 0.000000 0.000000 0.000000 0.000000 7
1440979809.813333 33.409945 -111.893962 416876.797403 3697092.119470 362.030000 0.120000 0.000000 -0.229581 0.000000 0.000000 0.000000 0.000000 0.000000 0.000000 7
1440979809.913285 33.409945 -111.893962 416876.797403 3697092.119470 362.030000 0.120000 0.000000 -0.229232 0.000000 0.000000 0.000000 0.000000 0.000000 0.000000 7
1440979810.013382 33.409946 -111.893962 416876.806892 3697092.141565 362.040000 0.100000 0.000000 -0.230261 0.000000 0.000000 0.000000 0.000000 0.000000 0.000000 7
1440979810.113337 33.409946 -111.893962 416876.797974 3697092.185994 362.040000 0.070000 0.000000 -0.228097 0.000000 0.000000 0.000000 0.000000 0.000000 0.000000 7
1440979810.213325 33.409946 -111.893962 416876.797974 3697092.185994 362.040000 0.070000 0.000000 -0.229930 0.000000 0.000000 0.000000 0.000000 0.000000 0.000000 7
1440979810.313338 33.409946 -111.893962 416876.788771 3697092.197161 362.030000 0.020000 0.000000 -0.228586 0.000000 0.000000 0.000000 0.000000 0.000000 0.000000 7
1440979810.413336 33.409946 -111.893962 416876.788771 3697092.197161 362.030000 0.020000 0.000000 -0.230994 0.000000 0.000000 0.000000 0.000000 0.000000 0.000000 7
1440979810.513282 33.409946 -111.893962 416876.770364 3697092.219495 362.020000 0.050000 0.000000 -0.229144 0.000000 0.000000 0.000000 0.000000 0.000000 0.000000 7
1440979810.613304 33.409946 -111.893962 416876.770364 3697092.219495 362.020000 0.050000 0.000000 -0.230209 0.000000 0.000000 0.000000 0.000000 0.000000 0.000000 7
1440979810.713339 33.409946 -111.893962 416876.770364 3697092.219495 362.020000 0.050000 0.000000 -0.227434 0.000000 0.000000 0.000000 0.000000 0.000000 0.000000 7
1440979810.812969 33.409946 -111.893962 416876.770364 3697092.219495 362.020000 0.050000 0.000000 -0.227434 0.000000 0.000000 0.000000 0.000000 0.000000 0.000000 7
1440979810.913300 33.409946 -111.893962 416876.751481 3697092.186393 361.980000 0.040000 0.000000 -0.229441 0.000000 0.000000 0.000000 0.000000 0.000000 0.000000 7
1440979811.013446 33.409946 -111.893963 416876.732979 3697092.197640 361.960000 0.030000 0.000000 -0.228708 0.000000 0.000000 0.000000 0.000000 0.000000 0.000000 7
1440979811.113404 33.409946 -111.893963 416876.732884 3697092.186553 361.920000 0.030000 0.000000 -0.229877 0.000000 0.000000 0.000000 0.000000 0.000000 0.000000 7
1440979811.213399 33.409946 -111.893963 416876.732884 3697092.186553 361.920000 0.030000 0.000000 -0.231029 0.000000 0.000000 0.000000 0.000000 0.000000 0.000000 7
1440979811.313407 33.409946 -111.893963 416876.742278 3697092.197561 361.910000 0.070000 0.000000 -0.229965 0.000000 0.000000 0.000000 0.000000 0.000000 0.000000 7
1440979811.413400 33.409946 -111.893963 416876.742278 3697092.197561 361.910000 0.070000 0.000000 -0.228307 0.000000 0.000000 0.000000 0.000000 0.000000 0.000000 7
1440979811.513361 33.409946 -111.893962 416876.751862 3697092.230742 361.910000 0.070000 0.000000 -0.221779 0.000000 0.000000 0.000000 0.000000 0.000000 0.000000 7
1440979811.613290 33.409946 -111.893962 416876.751862 3697092.230742 361.910000 0.070000 0.000000 -0.223367 0.000000 0.000000 0.000000 0.000000 0.000000 0.000000 7
1440979811.713333 33.409947 -111.893963 416876.742850 3697092.264084 361.890000 0.070000 0.000000 -0.227661 0.000000 0.000000 0.000000 0.000000 0.000000 0.000000 7
1440979811.813340 33.409947 -111.893963 416876.742850 3697092.264084 361.890000 0.070000 0.000000 -0.225182 0.000000 0.000000 0.000000 0.000000 0.000000 0.000000 7
1440979811.913357 33.409947 -111.893963 416876.733741 3697092.286339 361.880000 0.060000 0.000000 -0.218812 0.000000 0.000000 0.000000 0.000000 0.000000 0.000000 7
1440979812.013377 33.409947 -111.893963 416876.733741 3697092.286339 361.880000 0.060000 0.000000 -0.211028 0.000000 0.000000 0.000000 0.000000 0.000000 0.000000 7
1440979812.113324 33.409947 -111.893963 416876.743135 3697092.297346 361.850000 0.050000 0.000000 -0.210853 0.000000 0.000000 0.000000 0.000000 0.000000 0.000000 7
1440979812.213261 33.409947 -111.893963 416876.743135 3697092.297346 361.850000 0.050000 0.000000 -0.207921 0.000000 0.000000 0.000000 0.000000 0.000000 0.000000 7
1440979812.313360 33.409948 -111.893963 416876.734313 3697092.352862 361.810000 0.120000 0.000000 -0.200451 0.000000 0.000000 0.000000 0.000000 0.000000 0.000000 7
1440979812.413340 33.409948 -111.893963 416876.734313 3697092.352862 361.810000 0.120000 0.000000 -0.196943 0.000000 0.000000 0.000000 0.000000 0.000000 0.000000 7
1440979812.513341 33.409948 -111.893962 416876.772174 3697092.430154 361.800000 0.130000 0.000000 -0.196978 0.000000 0.000000 0.000000 0.000000 0.000000 0.000000 7
1440979812.613338 33.409948 -111.893962 416876.772174 3697092.430154 361.800000 0.130000 0.000000 -0.200818 0.000000 0.000000 0.000000 0.000000 0.000000 0.000000 7
1440979812.713349 33.409949 -111.893962 416876.819620 3697092.540627 361.790000 0.300000 0.000000 -0.212407 0.000000 0.000000 0.000000 0.000000 0.000000 0.000000 7
1440979812.813339 33.409949 -111.893962 416876.819620 3697092.540627 361.790000 0.300000 0.000000 -0.219091 0.000000 0.000000 0.000000 0.000000 0.000000 0.000000 7
1440979812.913340 33.409951 -111.893961 416876.848944 3697092.706696 361.790000 0.450000 2.370255 -0.264225 0.000000 0.000000 0.000000 0.000000 0.000000 0.000000 7
1440979813.013275 33.409951 -111.893961 416876.848944 3697092.706696 361.790000 0.450000 0.120062 -0.264679 0.000000 0.000000 0.000000 0.000000 0.000000 0.000000 7
1440979813.113351 33.409953 -111.893961 416876.850564 3697092.895180 361.780000 0.630000 0.089948 -0.259775 0.000000 0.000000 0.000000 0.000000 0.000000 0.000000 7
1440979813.213229 33.409953 -111.893961 416876.850564 3697092.895180 361.780000 0.630000 0.620642 -0.250786 0.000000 0.000000 0.000000 0.000000 0.000000 0.000000 7
1440979813.313340 33.409954 -111.893962 416876.824288 3697093.083903 361.790000 0.710000 0.439521 -0.244817 0.000000 0.000000 0.000000 0.000000 0.000000 0.000000 7
1440979813.413337 33.409954 -111.893962 416876.824288 3697093.083903 361.790000 0.710000 1.410046 -0.239651 0.000000 0.000000 0.000000 0.000000 0.000000 0.000000 7
1440979813.513616 33.409956 -111.893962 416876.788522 3697093.250532 361.780000 0.760000 0.568756 -0.240314 0.000000 0.000000 0.000000 0.000000 0.000000 0.000000 7
1440979813.613342 33.409956 -111.893962 416876.788522 3697093.250532 361.780000 0.760000 0.581244 -0.240751 0.000000 0.000000 0.000000 0.000000 0.000000 0.000000 7
1440979813.713340 33.409958 -111.893963 416876.743839 3697093.461590 361.780000 0.810000 0.700014 -0.244137 0.000000 0.000000 0.000000 0.000000 0.000000 0.000000 7
1440979813.813351 33.409958 -111.893963 416876.743839 3697093.461590 361.780000 0.810000 0.319973 -0.246423 0.000000 0.000000 0.000000 0.000000 0.000000 0.000000 7
1440979813.913343 33.409958 -111.893963 416876.743839 3697093.461590 361.780000 0.810000 0.040003 -0.242688 0.000000 0.000000 0.000000 0.000000 0.000000 0.000000 7
1440979814.013386 33.409959 -111.893963 416876.671260 3697093.672887 361.780000 0.920000 0.000000 -0.234206 0.000000 0.000000 0.000000 0.000000 0.000000 0.000000 7
1440979814.113343 33.409962 -111.893964 416876.589764 3697093.928614 361.760000 1.010000 -0.120054 -0.229860 0.000000 0.000000 0.000000 0.000000 0.000000 0.000000 7
1440979814.213320 33.409962 -111.893964 416876.589764 3697093.928614 361.760000 1.010000 -0.150036 -0.232321 0.000000 0.000000 0.000000 0.000000 0.000000 0.000000 7
1440979814.313346 33.409965 -111.893966 416876.462156 3697094.229089 361.710000 1.240000 -0.099974 -0.231221 0.000000 0.000000 0.000000 0.000000 0.000000 0.000000 7
1440979814.413359 33.409965 -111.893966 416876.462156 3697094.229089 361.710000 1.240000 -0.039995 -0.232199 0.000000 0.000000 0.000000 0.000000 0.000000 0.000000 7
1440979814.513338 33.409967 -111.893967 416876.325249 3697094.529644 361.680000 1.330000 -0.090019 -0.235061 0.000000 0.000000 0.000000 0.000000 0.000000 0.000000 7
1440979814.613344 33.409967 -111.893967 416876.325249 3697094.529644 361.680000 1.330000 0.049997 -0.235445 0.000000 0.000000 0.000000 0.000000 0.000000 0.000000 7
1440979814.713342 33.409970 -111.893969 416876.169364 3697094.786009 361.610000 1.290000 -0.170003 -0.237819 0.000000 0.000000 0.000000 0.000000 0.000000 0.000000 7
1440979814.813360 33.409970 -111.893969 416876.169364 3697094.786009 361.610000 1.290000 0.019997 -0.240594 0.000000 0.000000 0.000000 0.000000 0.000000 0.000000 7
1440979814.913342 33.409972 -111.893970 416876.031981 3697095.031128 361.560000 1.210000 -0.030005 -0.240506 0.000000 0.000000 0.000000 0.000000 0.000000 0.000000 7
1440979815.013359 33.409972 -111.893970 416876.031981 3697095.031128 361.560000 1.210000 0.029995 -0.247610 0.000000 0.000000 0.000000 0.000000 0.000000 0.000000 7
1440979815.113345 33.409973 -111.893972 416875.875238 3697095.187708 361.540000 1.070000 0.030004 -0.248413 0.000000 0.000000 0.000000 0.000000 0.000000 0.000000 7
1440979815.213240 33.409973 -111.893972 416875.875238 3697095.187708 361.540000 1.070000 -0.020021 -0.250123 0.000000 0.000000 0.000000 0.000000 0.000000 0.000000 7
1440979815.313342 33.409974 -111.893974 416875.699518 3697095.300098 361.510000 0.990000 -0.019980 -0.250507 0.000000 0.000000 0.000000 0.000000 0.000000 0.000000 7
1440979815.413331 33.409974 -111.893974 416875.699518 3697095.300098 361.510000 0.990000 0.030003 -0.248866 0.000000 0.000000 0.000000 0.000000 0.000000 0.000000 7
1440979815.513330 33.409975 -111.893976 416875.495711 3697095.390554 361.490000 0.970000 0.140002 -0.248360 0.000000 0.000000 0.000000 0.000000 0.000000 0.000000 7
1440979815.613270 33.409975 -111.893976 416875.495711 3697095.390554 361.490000 0.970000 0.020013 -0.249041 0.000000 0.000000 0.000000 0.000000 0.000000 0.000000 7
1440979815.713334 33.409975 -111.893978 416875.300822 3697095.436581 361.490000 0.910000 0.099934 -0.249093 0.000000 0.000000 0.000000 0.000000 0.000000 0.000000 7
1440979815.813354 33.409975 -111.893978 416875.300822 3697095.436581 361.490000 0.910000 0.019996 -0.250088 0.000000 0.000000 0.000000 0.000000 0.000000 0.000000 7
1440979816.213338 33.409975 -111.893983 416874.900506 3697095.384580 361.510000 0.870000 0.099999 -0.233944 18.981277 -8.669191 1.235747 -0.586286 1.995470 0.134532 3
1440979816.313297 33.409974 -111.893984 416874.751157 3697095.319335 361.490000 0.770000 0.000000 -0.207624 18.981277 -8.485737 1.235747 -0.574198 1.994818 0.143878 3
1440979816.413349 33.409974 -111.893984 416874.751157 3697095.319335 361.490000 0.770000 0.129934 -0.182631 18.981277 -8.302280 1.235747 -0.562109 1.994699 0.145525 3
1440979816.513347 33.409974 -111.893986 416874.620691 3697095.287192 361.490000 0.600000 0.210006 -0.134896 18.981277 -7.935373 1.235747 -0.537931 1.993660 0.159117 3
1440979816.613311 33.409974 -111.893986 416874.620691 3697095.287192 361.490000 0.600000 0.630200 -0.097372 18.981277 -7.568464 1.235747 -0.513754 1.993110 0.165867 3
1440979816.713355 33.409974 -111.893987 416874.518406 3697095.288070 361.490000 0.430000 0.489877 -0.084806 18.981277 -7.385012 1.235747 -0.501665 1.991818 0.180725 3
1440979816.813395 33.409974 -111.893987 416874.518406 3697095.288070 361.490000 0.430000 0.539800 -0.066200 18.981277 -7.018103 1.235747 -0.477488 1.991143 0.188014 3
1440979816.913400 33.409974 -111.893988 416874.425611 3697095.311044 361.500000 0.310000 0.489966 -0.059778 18.981277 -6.834650 1.235747 -0.465399 1.990012 0.199626 3
1440979817.013436 33.409974 -111.893988 416874.425611 3697095.311044 361.500000 0.310000 0.959675 -0.050999 18.981277 -6.467741 1.235747 -0.441221 1.989562 0.204068 3
1440979817.113432 33.409974 -111.893988 416874.360807 3697095.344865 361.540000 0.230000 0.570034 -0.048991 18.981277 -6.284285 1.235747 -0.429133 1.988421 0.214897 3
1440979817.213405 33.409974 -111.893988 416874.360807 3697095.344865 361.540000 0.230000 1.110245 -0.044122 18.981277 -5.917377 1.235747 -0.404955 1.988131 0.217564 3
1440979817.313429 33.409975 -111.893989 416874.277881 3697095.434282 361.570000 0.330000 0.939768 -0.043511 18.981277 -5.550470 1.235747 -0.380778 1.986482 0.232136 3
1440979817.413371 33.409975 -111.893989 416874.277881 3697095.434282 361.570000 0.330000 0.440260 -0.044803 18.981277 -5.367016 1.235747 -0.368689 1.986382 0.232993 3
1440979817.513316 33.409976 -111.893990 416874.214030 3697095.578976 361.600000 0.430000 0.800446 -0.045204 18.981277 -5.000107 1.235747 -0.344511 1.984945 0.244934 3
1440979817.613396 33.409976 -111.893990 416874.214030 3697095.578976 361.600000 0.430000 0.319740 -0.044349 18.981277 -4.816654 1.235747 -0.332423 1.985000 0.244485 3
1440979817.713315 33.409978 -111.893991 416874.150369 3697095.745844 361.590000 0.570000 0.560465 -0.042603 18.981277 -4.449745 1.235747 -0.308245 1.983695 0.254863 3
1440979817.813402 33.409978 -111.893991 416874.150369 3697095.745844 361.590000 0.570000 0.189835 -0.040596 18.981277 -4.266293 1.235747 -0.296157 1.981645 0.270340 3
1440979817.913431 33.409980 -111.893991 416874.105876 3697095.979077 361.580000 0.780000 0.329906 -0.041172 18.981277 -3.899384 1.235747 -0.271979 1.980206 0.280681 3
1440979818.013466 33.409980 -111.893991 416874.105876 3697095.979077 361.580000 0.780000 0.139952 -0.041591 18.981277 -3.715927 1.235747 -0.259890 1.980173 0.280914 3
1440979818.113421 33.409983 -111.893991 416874.081029 3697096.334109 361.590000 1.100000 0.190095 -0.042150 18.981277 -3.349020 1.235747 -0.235713 1.978781 0.290563 3
1440979818.213388 33.409983 -111.893991 416874.081029 3697096.334109 361.590000 1.100000 -0.020008 -0.041591 18.981277 -3.165565 1.235747 -0.223624 1.978928 0.289556 3
1440979818.313405 33.409987 -111.893991 416874.093947 3697096.755346 361.600000 1.430000 0.009997 -0.038624 18.981277 -2.982113 1.235747 -0.211535 1.977590 0.298557 3
1440979818.413416 33.409987 -111.893991 416874.093947 3697096.755346 361.600000 1.430000 0.139986 -0.038834 18.981277 -2.615206 1.235747 -0.187358 1.978117 0.295050 3
1440979818.513365 33.409991 -111.893991 416874.125940 3697097.231859 361.640000 1.750000 -0.030014 -0.037455 18.981277 -2.248299 1.235747 -0.163180 1.977478 0.299299 3
1440979818.613420 33.409996 -111.893990 416874.195602 3697097.763489 361.660000 2.020000 0.029985 -0.036634 18.981277 -1.881390 1.235747 -0.139003 1.977303 0.300453 3
1440979818.713405 33.409996 -111.893990 416874.195602 3697097.763489 361.660000 2.020000 0.210028 -0.035535 18.981277 -1.697935 1.235747 -0.126914 1.977824 0.297003 3
1440979818.813406 33.409996 -111.893990 416874.195602 3697097.763489 361.660000 2.020000 -0.079999 -0.034680 18.981277 -1.331026 1.235747 -0.102737 1.978970 0.289271 3
1440979818.913400 33.410001 -111.893990 416874.284053 3697098.317134 361.680000 2.290000 -0.050002 -0.036268 18.981277 -1.147573 1.235747 -0.090648 1.979014 0.288971 3
1440979819.013355 33.410001 -111.893990 416874.284053 3697098.317134 361.680000 2.290000 -0.010005 -0.038694 18.981277 -0.780664 1.235747 -0.066470 1.980245 0.280410 3
1440979819.113403 33.410006 -111.893988 416874.400494 3697098.881626 361.710000 2.470000 0.119942 -0.037839 18.981277 -0.597210 1.235747 -0.054382 1.980629 0.277682 3
1440979819.213407 33.410006 -111.893988 416874.400494 3697098.881626 361.710000 2.470000 0.069998 -0.037594 18.981277 -0.230303 1.235747 -0.030204 1.982213 0.266143 3
1440979819.313407 33.410012 -111.893987 416874.498434 3697099.457366 361.750000 2.580000 0.059999 -0.036687 18.981277 -0.046846 1.235747 -0.018115 1.982711 0.262403 3
1440979819.413425 33.410012 -111.893987 416874.498434 3697099.457366 361.750000 2.580000 -0.040013 -0.036984 18.981277 0.320061 1.235747 0.006062 1.984325 0.249905 3
1440979819.513433 33.410017 -111.893986 416874.614875 3697100.021858 361.770000 2.640000 -0.079955 -0.039811 18.981277 0.503515 1.235747 0.018151 1.984657 0.247256 3
1440979819.613399 33.410017 -111.893986 416874.614875 3697100.021858 361.770000 2.640000 0.250075 -0.044401 18.981277 0.870422 1.235747 0.042328 1.985754 0.238284 3
1440979819.713425 33.410022 -111.893985 416874.721923 3697100.575343 361.780000 2.680000 0.029993 -0.044855 18.981277 1.053877 1.235747 0.054417 1.985799 0.237908 3
1440979819.813405 33.410022 -111.893985 416874.721923 3697100.575343 361.780000 2.680000 0.090015 -0.043319 18.981277 1.420786 1.235747 0.078595 1.986718 0.230111 3
1440979819.913404 33.410027 -111.893984 416874.847854 3697101.161930 361.790000 2.780000 0.110002 -0.043057 18.981277 1.604239 1.235747 0.090683 1.986707 0.230205 3
1440979820.013453 33.410027 -111.893984 416874.847854 3697101.161930 361.790000 2.780000 0.109945 -0.040561 18.981277 1.971148 1.235747 0.114861 1.987678 0.221663 3
1440979820.113446 33.410032 -111.893982 416874.982987 3697101.737350 361.780000 2.830000 0.060006 -0.039636 18.981277 2.154602 1.235747 0.126950 1.987657 0.221854 3
1440979820.213403 33.410032 -111.893982 416874.982987 3697101.737350 361.780000 2.830000 0.060025 -0.037525 18.981277 2.521511 1.235747 0.151127 1.988832 0.211057 3
1440979820.313278 33.410038 -111.893981 416875.137004 3697102.345872 361.790000 2.920000 0.020025 -0.033336 18.981277 2.888418 1.235747 0.175305 1.989340 0.206221 3
1440979820.413402 33.410038 -111.893981 416875.137004 3697102.345872 361.790000 2.920000 0.049939 -0.029444 18.981277 3.071873 1.235747 0.187393 1.989890 0.200838 3
1440979820.512985 33.410038 -111.893981 416875.137004 3697102.345872 361.790000 2.920000 0.049939 -0.029444 18.981277 3.071873 1.235747 0.187393 1.989890 0.200838 3
1440979820.613407 33.410043 -111.893979 416875.263220 3697102.965721 361.820000 2.930000 0.049999 -0.025726 18.981277 3.255326 1.235747 0.199482 1.989849 0.201248 3
1440979820.713295 33.410048 -111.893978 416875.379567 3697103.519126 361.840000 2.790000 0.000000 -0.017575 18.981277 3.989143 1.235747 0.247837 1.991467 0.184551 3
1440979820.813312 33.410048 -111.893978 416875.379567 3697103.519126 361.840000 2.790000 0.039993 -0.015551 18.981277 4.172597 1.235747 0.259926 1.992046 0.178195 3
1440979820.913423 33.410053 -111.893977 416875.495817 3697104.061444 361.850000 2.750000 -0.179803 -0.008098 18.981277 4.539505 1.235747 0.284103 1.992723 0.170457 3
1440979821.013427 33.410053 -111.893977 416875.495817 3697104.061444 361.850000 2.750000 -0.119992 -0.003805 18.981277 4.722960 1.235747 0.296192 1.993263 0.164015 3
1440979821.113407 33.410058 -111.893976 416875.565671 3697104.615248 361.840000 2.730000 -0.320071 0.003403 18.981277 5.089867 1.235747 0.320369 1.993683 0.158834 3
1440979821.213395 33.410058 -111.893976 416875.565671 3697104.615248 361.840000 2.730000 -0.130014 0.006737 18.981277 5.273322 1.235747 0.332458 1.994099 0.153519 3
1440979821.313422 33.410063 -111.893976 416875.589221 3697105.191627 361.840000 2.740000 -0.259931 0.008238 18.981277 5.640230 1.235747 0.356636 1.994158 0.152749 3
1440979821.413395 33.410063 -111.893976 416875.589221 3697105.191627 361.840000 2.740000 -0.150039 0.008988 18.981277 5.823684 1.235747 0.368724 1.994505 0.148158 3
1440979821.513415 33.410069 -111.893976 416875.566279 3697105.768405 361.830000 2.760000 -0.209970 0.007453 18.981277 6.190592 1.235747 0.392902 1.994150 0.152862 3
1440979821.612985 33.410069 -111.893976 416875.566279 3697105.768405 361.830000 2.760000 -0.209970 0.007453 18.981277 6.190592 1.235747 0.392902 1.994150 0.152862 3
1440979821.713335 33.410074 -111.893977 416875.496844 3697106.345583 361.820000 2.790000 -0.200084 -0.001065 18.981277 6.740954 1.235747 0.429168 1.993405 0.162286 3
1440979821.813400 33.410074 -111.893977 416875.496844 3697106.345583 361.820000 2.790000 -0.259806 -0.010210 18.981277 7.107862 1.235747 0.453346 1.993801 0.157347 3
1440979821.913296 33.410079 -111.893979 416875.353021 3697106.923399 361.800000 2.820000 -0.110113 -0.016895 18.981277 7.291318 1.235747 0.465434 1.991711 0.181900 3
1440979822.013435 33.410079 -111.893979 416875.353021 3697106.923399 361.800000 2.820000 -0.139805 -0.021328 18.981277 7.474771 1.235747 0.477523 1.991881 0.180031 3
1440979822.113366 33.410084 -111.893981 416875.190695 3697107.512463 361.810000 2.890000 -0.130093 -0.030386 18.981277 7.841680 1.235747 0.501701 1.988433 0.214783 3
1440979822.213394 33.410084 -111.893981 416875.190695 3697107.512463 361.810000 2.890000 -0.099973 -0.032236 18.981277 8.025133 1.235747 0.513789 1.988395 0.215138 3
1440979822.313820 33.410090 -111.893983 416875.000569 3697108.112854 361.800000 2.990000 -0.209107 -0.037839 18.981277 8.392040 1.235747 0.537967 1.982996 0.260244 3
1440979822.413335 33.410090 -111.893983 416875.000569 3697108.112854 361.800000 2.990000 -0.221028 -0.043563 18.981277 8.758948 1.235747 0.562144 1.982403 0.264719 3
1440979822.513329 33.410095 -111.893985 416874.773440 3697108.735739 361.810000 3.040000 -0.100009 -0.039514 18.981277 8.942403 1.235747 0.574233 1.974705 0.317081 3
1440979822.613328 33.410095 -111.893985 416874.773440 3697108.735739 361.810000 3.040000 -0.079998 -0.036181 18.981277 9.125857 1.235747 0.586322 1.974076 0.320975 3
1440979822.713339 33.410100 -111.893988 416874.546024 3697109.325362 361.830000 3.060000 -0.139987 -0.036722 18.981277 9.492764 1.235747 0.610499 1.963863 0.378475 3
1440979822.813356 33.410100 -111.893988 416874.546024 3697109.325362 361.830000 3.060000 -0.109999 -0.035029 18.981277 9.859674 1.235747 0.634677 1.962313 0.386428 3
1440979822.913340 33.410106 -111.893990 416874.299916 3697109.904057 361.850000 3.070000 -0.030000 -0.035273 18.981277 10.043128 1.235747 0.646765 1.950064 0.444129 3
1440979823.013383 33.410106 -111.893990 416874.299916 3697109.904057 361.850000 3.070000 -0.099957 -0.036879 18.981277 10.410036 1.235747 0.670943 1.947995 0.453115 3
1440979823.113317 33.410111 -111.893993 416874.035307 3697110.494000 361.880000 3.050000 -0.050033 -0.036547 18.981277 10.593490 1.235747 0.683032 1.934529 0.507542 3
1440979823.213265 33.410111 -111.893993 416874.035307 3697110.494000 361.880000 3.050000 -0.090049 -0.038956 18.981277 10.960398 1.235747 0.707209 1.931679 0.518282 3
1440979823.313341 33.410116 -111.893996 416873.761398 3697111.084022 361.920000 3.140000 -0.039969 -0.043598 18.981277 11.143852 1.235747 0.719298 1.915896 0.573883 3
1440979823.413334 33.410116 -111.893996 416873.761398 3697111.084022 361.920000 3.140000 -0.020001 -0.049253 18.981277 11.510761 1.235747 0.743475 1.912176 0.586158 3
1440979823.513339 33.410122 -111.894000 416873.469084 3697111.696379 361.940000 3.250000 0.019999 -0.050161 18.981277 11.694214 1.235747 0.755564 1.894583 0.640745 3
1440979823.613347 33.410122 -111.894000 416873.469084 3697111.696379 361.940000 3.250000 0.039996 -0.049899 18.981277 12.061123 1.235747 0.779742 1.890672 0.652195 3
1440979823.713338 33.410127 -111.894003 416873.185972 3697112.297569 361.980000 3.160000 0.020002 -0.050719 18.981277 12.244577 1.235747 0.791830 1.871691 0.704820 3
1440979823.813224 33.410127 -111.894003 416873.185972 3697112.297569 361.980000 3.160000 0.080090 -0.050649 18.981277 12.611485 1.235747 0.816008 1.867713 0.715296 3
1440979823.913320 33.410133 -111.894006 416872.921363 3697112.887512 361.980000 3.110000 0.019981 -0.048066 18.981277 12.978394 1.235747 0.840185 1.845788 0.770109 3
1440979824.013384 33.410133 -111.894006 416872.921363 3697112.887512 361.980000 3.110000 0.009994 -0.045605 18.981277 13.161848 1.235747 0.852274 1.844289 0.773690 3
1440979824.113347 33.410138 -111.894008 416872.703151 3697113.465968 361.980000 3.000000 0.010004 -0.038327 18.981277 13.528755 1.235747 0.876452 1.823393 0.821729 3
1440979824.213334 33.410138 -111.894008 416872.703151 3697113.465968 361.980000 3.000000 0.080010 -0.036565 18.981277 13.712210 1.235747 0.888540 1.822238 0.824286 3
1440979824.312990 33.410138 -111.894008 416872.703151 3697113.465968 361.980000 3.000000 0.080010 -0.036565 18.981277 13.712210 1.235747 0.888540 1.822238 0.824286 3
1440979824.413362 33.410143 -111.894010 416872.521942 3697114.021929 361.980000 2.890000 0.014998 -0.032114 18.981277 14.079119 1.235747 0.912718 1.803444 0.864633 3
1440979824.513332 33.410148 -111.894012 416872.368821 3697114.599826 361.980000 2.850000 0.040011 -0.029828 18.981277 14.629480 1.235747 0.948984 1.786091 0.899932 3
1440979824.612983 33.410148 -111.894012 416872.368821 3697114.599826 361.980000 2.850000 0.040011 -0.029828 18.981277 14.629480 1.235747 0.948984 1.786091 0.899932 3
1440979824.713308 33.410153 -111.894013 416872.262001 3697115.155149 361.960000 2.790000 -0.020002 -0.028938 18.981277 15.179843 1.235747 0.985250 1.771381 0.928552 3
1440979824.813297 33.410153 -111.894013 416872.262001 3697115.155149 361.960000 2.790000 -0.020006 -0.025918 18.981277 15.363297 1.235747 0.997339 1.772114 0.927152 3
1440979824.913342 33.410158 -111.894013 416872.219986 3697115.676650 361.960000 2.660000 0.019987 -0.024923 18.981277 15.730206 1.235747 1.021516 1.760786 0.948490 3
1440979825.013386 33.410158 -111.894013 416872.219986 3697115.676650 361.960000 2.660000 -0.019991 -0.022794 18.981277 15.913659 1.235747 1.033605 1.762132 0.945987 3
1440979825.113342 33.410162 -111.894013 416872.242965 3697116.186505 361.970000 2.570000 0.020009 -0.025482 18.981277 16.280567 1.235747 1.057783 1.754498 0.960071 3
1440979825.213365 33.410162 -111.894013 416872.242965 3697116.186505 361.970000 2.570000 -0.029993 -0.026808 18.981277 16.464022 1.235747 1.069871 1.756578 0.956260 3
1440979825.313338 33.410167 -111.894013 416872.293554 3697116.662858 361.950000 2.510000 -0.030008 -0.026581 18.981277 16.830931 1.235747 1.094049 1.752055 0.964522 3
1440979825.413336 33.410167 -111.894013 416872.293554 3697116.662858 361.950000 2.510000 0.030001 -0.025744 18.981277 17.197838 1.235747 1.118226 1.757503 0.954559 3
1440979825.513342 33.410171 -111.894012 416872.372230 3697117.161147 361.950000 2.450000 -0.029998 -0.024470 18.981277 17.381292 1.235747 1.130315 1.750932 0.966559 3
1440979825.613356 33.410171 -111.894012 416872.372230 3697117.161147 361.950000 2.450000 0.079989 -0.023632 18.981277 17.748201 1.235747 1.154493 1.757183 0.955148 3
1440979825.713275 33.410175 -111.894011 416872.488005 3697117.648028 361.940000 2.480000 -0.030024 -0.024766 18.981277 17.931654 1.235747 1.166581 1.753133 0.962561 3
1440979825.813338 33.410175 -111.894011 416872.488005 3697117.648028 361.940000 2.480000 0.049968 -0.022724 18.981277 18.298563 1.235747 1.190759 1.760178 0.949617 3
1440979825.913341 33.410180 -111.894009 416872.640973 3697118.134590 361.960000 2.510000 0.030000 -0.022672 18.981277 18.482018 1.235747 1.202848 1.760160 0.949650 3
1440979826.013381 33.410180 -111.894009 416872.640973 3697118.134590 361.960000 2.510000 0.059975 -0.020787 18.981277 18.665472 1.235747 1.214936 1.764140 0.942236 3
1440979826.113346 33.410184 -111.894007 416872.793847 3697118.610065 361.970000 2.470000 0.020007 -0.016563 18.981277 18.981277 1.235747 1.235747 1.767413 0.936082 3
1440979826.213337 33.410184 -111.894007 416872.793847 3697118.610065 361.970000 2.470000 -0.050003 -0.013491 18.981277 18.981277 1.235747 1.235747 1.764785 0.941027 3
